%YAML 1.1
%TAG !u! tag:unity3d.com,2011:
--- !u!114 &11400000
MonoBehaviour:
  m_ObjectHideFlags: 0
  m_CorrespondingSourceObject: {fileID: 0}
  m_PrefabInstance: {fileID: 0}
  m_PrefabAsset: {fileID: 0}
  m_GameObject: {fileID: 0}
  m_Enabled: 1
  m_EditorHideFlags: 0
  m_Script: {fileID: 11500000, guid: c7763db9e09fd6b4cad3622786c0f2c5, type: 3}
  m_Name: RandomThought_Negative_3
  m_EditorClassIdentifier: 
  <ThoughtIcon>k__BackingField: {fileID: 0}
  <DisplayPriority>k__BackingField: 0
  <DisplayText>k__BackingField: Get away!
  <DisplayColor>k__BackingField:
    serializedVersion: 2
    rgba: 4294967295
  <IsWaitingThought>k__BackingField: 0
  <IsOrderThought>k__BackingField: 0
