%YAML 1.1
%TAG !u! tag:unity3d.com,2011:
--- !u!114 &11400000
MonoBehaviour:
  m_ObjectHideFlags: 0
  m_CorrespondingSourceObject: {fileID: 0}
  m_PrefabInstance: {fileID: 0}
  m_PrefabAsset: {fileID: 0}
  m_GameObject: {fileID: 0}
  m_Enabled: 1
  m_EditorHideFlags: 0
  m_Script: {fileID: 11500000, guid: 4da3bf595869a28438b1a028b8897aff, type: 3}
  m_Name: OrderTemperatureAboveExpected
  m_EditorClassIdentifier: 
  <ContentPool>k__BackingField:
  - <ContentText>k__BackingField: This coffee is too hot...
    <Priority>k__BackingField: 50
  - <ContentText>k__BackingField: This coffee is hotter than a volcano!
    <Priority>k__BackingField: 50
  - <ContentText>k__BackingField: This coffee hurt my tongue!
    <Priority>k__BackingField: 50
