%YAML 1.1
%TAG !u! tag:unity3d.com,2011:
--- !u!114 &11400000
MonoBehaviour:
  m_ObjectHideFlags: 0
  m_CorrespondingSourceObject: {fileID: 0}
  m_PrefabInstance: {fileID: 0}
  m_PrefabAsset: {fileID: 0}
  m_GameObject: {fileID: 0}
  m_Enabled: 1
  m_EditorHideFlags: 0
  m_Script: {fileID: 11500000, guid: a6c21c4f211a7e74ba7cea050ccb768b, type: 3}
  m_Name: NiceDecor
  m_EditorClassIdentifier: 
  <Type>k__BackingField: 1
  <RequiredTraitsForExpectation>k__BackingField: 0900000007000000
  MinMaxExpectationThreshold: {x: 40, y: 60}
  <StartingValue>k__BackingField: 50
  <TraitsInfluencers>k__BackingField:
  - <Trait>k__BackingField: 11
    <ValueToInfluenceTheThresholdBy>k__BackingField: 10
