%YAML 1.1
%TAG !u! tag:unity3d.com,2011:
--- !u!114 &11400000
MonoBehaviour:
  m_ObjectHideFlags: 0
  m_CorrespondingSourceObject: {fileID: 0}
  m_PrefabInstance: {fileID: 0}
  m_PrefabAsset: {fileID: 0}
  m_GameObject: {fileID: 0}
  m_Enabled: 1
  m_EditorHideFlags: 0
  m_Script: {fileID: 11500000, guid: 4d507e7aee7e2e848bc869ec44c378f7, type: 3}
  m_Name: Shorts
  m_EditorClassIdentifier: 
  <CustomizationReceiver>k__BackingField: {fileID: 0}
  <Icon>k__BackingField: {fileID: 21300000, guid: 90d0a85bd2af69a43bb3e5f4bf1d16bb,
    type: 3}
  <ItemName>k__BackingField: Shorts
  <AvailableThemes>k__BackingField:
  - {fileID: 11400000, guid: 439c8d2c83486da40988da1ad99a2000, type: 2}
  - {fileID: 11400000, guid: 7d1a98983421d764388d9a28ea9f49a9, type: 2}
  - {fileID: 11400000, guid: cb13638d9dc7d3c49aea5694a4f0562d, type: 2}
  <CustomizableType>k__BackingField: 5
  <InitiallyPurchased>k__BackingField: 1
  <InitiallyVisible>k__BackingField: 1
