%YAML 1.1
%TAG !u! tag:unity3d.com,2011:
--- !u!114 &11400000
MonoBehaviour:
  m_ObjectHideFlags: 0
  m_CorrespondingSourceObject: {fileID: 0}
  m_PrefabInstance: {fileID: 0}
  m_PrefabAsset: {fileID: 0}
  m_GameObject: {fileID: 0}
  m_Enabled: 1
  m_EditorHideFlags: 0
  m_Script: {fileID: 11500000, guid: 9e2cac082db0d104c9dd0acf6fbac5d5, type: 3}
  m_Name: LongShirt
  m_EditorClassIdentifier: 
  <CustomizationReceiver>k__BackingField: {fileID: 0}
  <Icon>k__BackingField: {fileID: 21300000, guid: 7eecc7538e0e3b741a9a4c6ccee7839f,
    type: 3}
  <ItemName>k__BackingField: Long Shirt
  <AvailableThemes>k__BackingField:
  - {fileID: 11400000, guid: 567bb207241b3484fa4e7461cf2bc41a, type: 2}
  - {fileID: 11400000, guid: 16d0aef43ba90fe4980c4ed993514e41, type: 2}
  - {fileID: 11400000, guid: d7fb4164d6d6f884ba8feb0c39cde231, type: 2}
  <CustomizableType>k__BackingField: 4
  <InitiallyPurchased>k__BackingField: 1
  <InitiallyVisible>k__BackingField: 1
