%YAML 1.1
%TAG !u! tag:unity3d.com,2011:
--- !u!114 &11400000
MonoBehaviour:
  m_ObjectHideFlags: 0
  m_CorrespondingSourceObject: {fileID: 0}
  m_PrefabInstance: {fileID: 0}
  m_PrefabAsset: {fileID: 0}
  m_GameObject: {fileID: 0}
  m_Enabled: 1
  m_EditorHideFlags: 0
  m_Script: {fileID: 11500000, guid: ede7fb8065c1c8f43a13134062fdb449, type: 3}
  m_Name: Employee2
  m_EditorClassIdentifier: 
  Appearance:
    GlassesStyle: 1
    GlassesColor: 0
    EyeStyle: 0
    EyeColor: 3
    FacialHairStyle: 0
    FacialHairColor: 0
    ApronStyle: 1
    ApronColor: 3
    ShirtStyle: 2
    ShirtColor: 0
    PantsStyle: 2
    PantsColor: 1
    HatStyle: 4
    HatColor: 9
    SkinStyle: 0
    SkinColor: 0
