%YAML 1.1
%TAG !u! tag:unity3d.com,2011:
--- !u!114 &11400000
MonoBehaviour:
  m_ObjectHideFlags: 0
  m_CorrespondingSourceObject: {fileID: 0}
  m_PrefabInstance: {fileID: 0}
  m_PrefabAsset: {fileID: 0}
  m_GameObject: {fileID: 0}
  m_Enabled: 1
  m_EditorHideFlags: 0
  m_Script: {fileID: 11500000, guid: 4baf65ad2f741b3468c9ec49e527a4fc, type: 3}
  m_Name: Store_Catalog_Ingredient
  m_EditorClassIdentifier: 
  Icon: {fileID: 0}
  CatalogName: INGREDIENTS
  CategoriesInCatalog:
  - {fileID: 11400000, guid: 52742653599fad8418086d833d86ff11, type: 2}
  - {fileID: 11400000, guid: 6e36e9f8381ef5349821fc9ac0d637d0, type: 2}
  - {fileID: 11400000, guid: 68c0b0905a5944034b7881b0fceaeb37, type: 2}
