%YAML 1.1
%TAG !u! tag:unity3d.com,2011:
--- !u!114 &11400000
MonoBehaviour:
  m_ObjectHideFlags: 0
  m_CorrespondingSourceObject: {fileID: 0}
  m_PrefabInstance: {fileID: 0}
  m_PrefabAsset: {fileID: 0}
  m_GameObject: {fileID: 0}
  m_Enabled: 1
  m_EditorHideFlags: 0
  m_Script: {fileID: 11500000, guid: 9c7d38e3dd5624a1a99262faa76313bd, type: 3}
  m_Name: Stay
  m_EditorClassIdentifier: 
  ActionDisplayName: Cup
  Button: 1
  HoldTime: 0
  <InteractionMode>k__BackingField: 1
  AnimationConfig: {fileID: 11400000, guid: 0e1867d9c00310147bd9b7f3e5f22a46, type: 2}
