{
    "name": "DTT.COLOR.Tests.Runtime",
    "references": [
        "GUID:27619889b8ba8c24980f49ee34dbb44a",
        "GUID:5457e1f4a5d90bf458dc3d9005ead9c5",
        "GUID:343deaaf83e0cee4ca978e7df0b80d21",
        "GUID:2bafac87e7f4b9b418d9448d219b01ab"
    ],
    "includePlatforms": [],
    "excludePlatforms": [],
    "allowUnsafeCode": false,
    "overrideReferences": true,
    "precompiledReferences": [
        "nunit.framework.dll"
    ],
    "autoReferenced": true,
    "defineConstraints": [
        "UNITY_INCLUDE_TESTS"
    ],
    "versionDefines": [
        {
            "name": "com.unity.test-framework",
            "expression": "0.0.0",
            "define": "TEST_FRAMEWORK"
        }
    ],
    "noEngineReferences": false
}