%YAML 1.1
%TAG !u! tag:unity3d.com,2011:
--- !u!114 &11400000
MonoBehaviour:
  m_ObjectHideFlags: 0
  m_CorrespondingSourceObject: {fileID: 0}
  m_PrefabInstance: {fileID: 0}
  m_PrefabAsset: {fileID: 0}
  m_GameObject: {fileID: 0}
  m_Enabled: 1
  m_EditorHideFlags: 0
  m_Script: {fileID: 11500000, guid: 8a529cdbad81e1e45abf7b5f8efba25a, type: 3}
  m_Name: Hair_Long
  m_EditorClassIdentifier: 
  <CustomizationReceiver>k__BackingField: {fileID: 2837806004223660904, guid: 246902503d3d92a41b30a0a39457941a,
    type: 3}
  <Icon>k__BackingField: {fileID: 21300000, guid: 338f4dd3eaeb17e41b26e10c418fc6a7,
    type: 3}
  <ItemName>k__BackingField: Long bangs
  <AvailableThemes>k__BackingField:
  - {fileID: 11400000, guid: 3c74c06992044144cb0a1633055ba266, type: 2}
  - {fileID: 11400000, guid: b3feda4b805a60c4e9b8c236359ba65d, type: 2}
  - {fileID: 11400000, guid: 5ec1485541c63f840a58bcc9390e77d0, type: 2}
  - {fileID: 11400000, guid: 6c147e91278b73d44ba343af7eb107c2, type: 2}
  - {fileID: 11400000, guid: 36911d04dc7a11f4dae48b21840ae3cc, type: 2}
  - {fileID: 11400000, guid: 61bde3d73a2aeab42b2fd5ecda400a0a, type: 2}
  - {fileID: 11400000, guid: 6c3814e850a658e4f99599992e31396b, type: 2}
  - {fileID: 11400000, guid: 2735628633d103f40a497a22bd8f4a50, type: 2}
  - {fileID: 11400000, guid: e804b93b02d76874284b3f42e2d455f2, type: 2}
  - {fileID: 11400000, guid: dcb3c12ac95b3b54e99ff33171135b81, type: 2}
  - {fileID: 11400000, guid: 5152a7e7830b8d2479f7bd5b4d555af6, type: 2}
  <CustomizableType>k__BackingField: 6
  <InitiallyPurchased>k__BackingField: 1
  <InitiallyVisible>k__BackingField: 1
