%YAML 1.1
%TAG !u! tag:unity3d.com,2011:
--- !u!1001 &3653237221954842834
PrefabInstance:
  m_ObjectHideFlags: 0
  serializedVersion: 2
  m_Modification:
    serializedVersion: 3
    m_TransformParent: {fileID: 0}
    m_Modifications:
    - target: {fileID: -8679921383154817045, guid: 7a0c6217de720b04dbb753af76940f3c,
        type: 3}
      propertyPath: m_RootOrder
      value: 1
      objectReference: {fileID: 0}
    - target: {fileID: -8679921383154817045, guid: 7a0c6217de720b04dbb753af76940f3c,
        type: 3}
      propertyPath: m_LocalPosition.x
      value: 7.5
      objectReference: {fileID: 0}
    - target: {fileID: -8679921383154817045, guid: 7a0c6217de720b04dbb753af76940f3c,
        type: 3}
      propertyPath: m_LocalPosition.y
      value: 0
      objectReference: {fileID: 0}
    - target: {fileID: -8679921383154817045, guid: 7a0c6217de720b04dbb753af76940f3c,
        type: 3}
      propertyPath: m_LocalPosition.z
      value: 4.5
      objectReference: {fileID: 0}
    - target: {fileID: -8679921383154817045, guid: 7a0c6217de720b04dbb753af76940f3c,
        type: 3}
      propertyPath: m_LocalRotation.w
      value: 0.7071068
      objectReference: {fileID: 0}
    - target: {fileID: -8679921383154817045, guid: 7a0c6217de720b04dbb753af76940f3c,
        type: 3}
      propertyPath: m_LocalRotation.x
      value: 0.000000015454312
      objectReference: {fileID: 0}
    - target: {fileID: -8679921383154817045, guid: 7a0c6217de720b04dbb753af76940f3c,
        type: 3}
      propertyPath: m_LocalRotation.y
      value: -0.70710677
      objectReference: {fileID: 0}
    - target: {fileID: -8679921383154817045, guid: 7a0c6217de720b04dbb753af76940f3c,
        type: 3}
      propertyPath: m_LocalRotation.z
      value: -0.00000001545431
      objectReference: {fileID: 0}
    - target: {fileID: -8679921383154817045, guid: 7a0c6217de720b04dbb753af76940f3c,
        type: 3}
      propertyPath: m_LocalEulerAnglesHint.x
      value: 0
      objectReference: {fileID: 0}
    - target: {fileID: -8679921383154817045, guid: 7a0c6217de720b04dbb753af76940f3c,
        type: 3}
      propertyPath: m_LocalEulerAnglesHint.y
      value: -90
      objectReference: {fileID: 0}
    - target: {fileID: -8679921383154817045, guid: 7a0c6217de720b04dbb753af76940f3c,
        type: 3}
      propertyPath: m_LocalEulerAnglesHint.z
      value: 0
      objectReference: {fileID: 0}
    - target: {fileID: -7511558181221131132, guid: 7a0c6217de720b04dbb753af76940f3c,
        type: 3}
      propertyPath: 'm_Materials.Array.data[0]'
      value: 
      objectReference: {fileID: 2100000, guid: 9eab4d54a66b5914fab156bcaf13cf5e, type: 2}
    - target: {fileID: 217184282207999174, guid: 7a0c6217de720b04dbb753af76940f3c,
        type: 3}
      propertyPath: m_Layer
      value: 11
      objectReference: {fileID: 0}
    - target: {fileID: 919132149155446097, guid: 7a0c6217de720b04dbb753af76940f3c,
        type: 3}
      propertyPath: m_Name
      value: Wall_Door_2x Variant
      objectReference: {fileID: 0}
    - target: {fileID: 919132149155446097, guid: 7a0c6217de720b04dbb753af76940f3c,
        type: 3}
      propertyPath: m_Layer
      value: 7
      objectReference: {fileID: 0}
    - target: {fileID: 919132149155446097, guid: 7a0c6217de720b04dbb753af76940f3c,
        type: 3}
      propertyPath: m_StaticEditorFlags
      value: 1
      objectReference: {fileID: 0}
    - target: {fileID: 5916647407123986457, guid: 7a0c6217de720b04dbb753af76940f3c,
        type: 3}
      propertyPath: 'm_Materials.Array.data[0]'
      value: 
      objectReference: {fileID: 2100000, guid: 9eab4d54a66b5914fab156bcaf13cf5e, type: 2}
    m_RemovedComponents: []
    m_RemovedGameObjects: []
    m_AddedGameObjects: []
    m_AddedComponents:
    - targetCorrespondingSourceObject: {fileID: 919132149155446097, guid: 7a0c6217de720b04dbb753af76940f3c,
        type: 3}
      insertIndex: -1
      addedObject: {fileID: 6010711181870960368}
    - targetCorrespondingSourceObject: {fileID: 217184282207999174, guid: 7a0c6217de720b04dbb753af76940f3c,
        type: 3}
      insertIndex: -1
      addedObject: {fileID: 2951994862161396570}
    - targetCorrespondingSourceObject: {fileID: 217184282207999174, guid: 7a0c6217de720b04dbb753af76940f3c,
        type: 3}
      insertIndex: -1
      addedObject: {fileID: 6296119729820544756}
  m_SourcePrefab: {fileID: 100100000, guid: 7a0c6217de720b04dbb753af76940f3c, type: 3}
--- !u!1 &3580766401231856660 stripped
GameObject:
  m_CorrespondingSourceObject: {fileID: 217184282207999174, guid: 7a0c6217de720b04dbb753af76940f3c,
    type: 3}
  m_PrefabInstance: {fileID: 3653237221954842834}
  m_PrefabAsset: {fileID: 0}
--- !u!114 &2951994862161396570
MonoBehaviour:
  m_ObjectHideFlags: 0
  m_CorrespondingSourceObject: {fileID: 0}
  m_PrefabInstance: {fileID: 0}
  m_PrefabAsset: {fileID: 0}
  m_GameObject: {fileID: 3580766401231856660}
  m_Enabled: 1
  m_EditorHideFlags: 0
  m_Script: {fileID: 11500000, guid: 48b41735204b8554198714f3693c3a81, type: 3}
  m_Name: 
  m_EditorClassIdentifier: 
  m_shaderVariableName: _Dither
  m_fadeTo: 0
--- !u!64 &6296119729820544756
MeshCollider:
  m_ObjectHideFlags: 0
  m_CorrespondingSourceObject: {fileID: 0}
  m_PrefabInstance: {fileID: 0}
  m_PrefabAsset: {fileID: 0}
  m_GameObject: {fileID: 3580766401231856660}
  m_Material: {fileID: 0}
  m_IncludeLayers:
    serializedVersion: 2
    m_Bits: 0
  m_ExcludeLayers:
    serializedVersion: 2
    m_Bits: 0
  m_LayerOverridePriority: 0
  m_IsTrigger: 0
  m_ProvidesContacts: 0
  m_Enabled: 1
  serializedVersion: 5
  m_Convex: 0
  m_CookingOptions: 30
  m_Mesh: {fileID: -2451029352997147658, guid: 7a0c6217de720b04dbb753af76940f3c, type: 3}
--- !u!1 &4500096807381454211 stripped
GameObject:
  m_CorrespondingSourceObject: {fileID: 919132149155446097, guid: 7a0c6217de720b04dbb753af76940f3c,
    type: 3}
  m_PrefabInstance: {fileID: 3653237221954842834}
  m_PrefabAsset: {fileID: 0}
--- !u!64 &6010711181870960368
MeshCollider:
  m_ObjectHideFlags: 0
  m_CorrespondingSourceObject: {fileID: 0}
  m_PrefabInstance: {fileID: 0}
  m_PrefabAsset: {fileID: 0}
  m_GameObject: {fileID: 4500096807381454211}
  m_Material: {fileID: 0}
  m_IncludeLayers:
    serializedVersion: 2
    m_Bits: 0
  m_ExcludeLayers:
    serializedVersion: 2
    m_Bits: 0
  m_LayerOverridePriority: 0
  m_IsTrigger: 0
  m_ProvidesContacts: 0
  m_Enabled: 1
  serializedVersion: 5
  m_Convex: 0
  m_CookingOptions: 30
  m_Mesh: {fileID: -6222588683633927399, guid: 7a0c6217de720b04dbb753af76940f3c, type: 3}
