%YAML 1.1
%TAG !u! tag:unity3d.com,2011:
--- !u!114 &11400000
MonoBehaviour:
  m_ObjectHideFlags: 0
  m_CorrespondingSourceObject: {fileID: 0}
  m_PrefabInstance: {fileID: 0}
  m_PrefabAsset: {fileID: 0}
  m_GameObject: {fileID: 0}
  m_Enabled: 1
  m_EditorHideFlags: 0
  m_Script: {fileID: 11500000, guid: d805ff4963be1ac4ea22eea9224a656f, type: 3}
  m_Name: Rainboots_Black
  m_EditorClassIdentifier: 
  <SkinName>k__BackingField: Black
  <MaterialsPerRenderer>k__BackingField:
  - Materials:
    - {fileID: 2100000, guid: f7b98e99b25950f45a485c669a6faa5f, type: 2}
    - {fileID: 2100000, guid: dbabbb676453b034a8e998c4f580581d, type: 2}
    - {fileID: 2100000, guid: 5faacf4b47e4593419e5d79bad4fa8e9, type: 2}
  - Materials:
    - {fileID: 2100000, guid: f7b98e99b25950f45a485c669a6faa5f, type: 2}
    - {fileID: 2100000, guid: dbabbb676453b034a8e998c4f580581d, type: 2}
    - {fileID: 2100000, guid: 5faacf4b47e4593419e5d79bad4fa8e9, type: 2}
  <Thumbnail>k__BackingField: {fileID: 0}
