%YAML 1.1
%TAG !u! tag:unity3d.com,2011:
--- !u!114 &11400000
MonoBehaviour:
  m_ObjectHideFlags: 0
  m_CorrespondingSourceObject: {fileID: 0}
  m_PrefabInstance: {fileID: 0}
  m_PrefabAsset: {fileID: 0}
  m_GameObject: {fileID: 0}
  m_Enabled: 1
  m_EditorHideFlags: 0
  m_Script: {fileID: 11500000, guid: c7763db9e09fd6b4cad3622786c0f2c5, type: 3}
  m_Name: InlineFailed
  m_EditorClassIdentifier: 
  <ThoughtIcon>k__BackingField: {fileID: 21300000, guid: 51bb3f4bf58694cb4acc9f3b53def6dd,
    type: 3}
  <DisplayPriority>k__BackingField: 0
  <DisplayText>k__BackingField: Line is not moving, I'm out!
  <DisplayColor>k__BackingField:
    _paletteGuid: 10639358-2511-474f-b9e5-a4517466a919
    _paletteColorGuid: cf019deb-65b4-4c70-a695-15174a05c2b3
  <IsWaitingThought>k__BackingField: 0
  <IsOrderThought>k__BackingField: 0
