%YAML 1.1
%TAG !u! tag:unity3d.com,2011:
--- !u!114 &11400000
MonoBehaviour:
  m_ObjectHideFlags: 0
  m_CorrespondingSourceObject: {fileID: 0}
  m_PrefabInstance: {fileID: 0}
  m_PrefabAsset: {fileID: 0}
  m_GameObject: {fileID: 0}
  m_Enabled: 1
  m_EditorHideFlags: 0
  m_Script: {fileID: 11500000, guid: 8769e4d20b0fb2044acf9e7527d11e88, type: 3}
  m_Name: ProductBox_Actions
  m_EditorClassIdentifier: 
  <Actions>k__BackingField:
  - {fileID: 11400000, guid: e596555f09f8e4110a7c28a11c7f70c5, type: 2}
