%YAML 1.1
%TAG !u! tag:unity3d.com,2011:
--- !u!114 &11400000
MonoBehaviour:
  m_ObjectHideFlags: 0
  m_CorrespondingSourceObject: {fileID: 0}
  m_PrefabInstance: {fileID: 0}
  m_PrefabAsset: {fileID: 0}
  m_GameObject: {fileID: 0}
  m_Enabled: 1
  m_EditorHideFlags: 0
  m_Script: {fileID: 11500000, guid: 1f8412d5208d5644c99c421c5401bfb9, type: 3}
  m_Name: Rainboots
  m_EditorClassIdentifier: 
  <CustomizationReceiver>k__BackingField: {fileID: 0}
  <Icon>k__BackingField: {fileID: 0}
  <ItemName>k__BackingField: Rain boots
  <Price>k__BackingField: 0
  <AvailableThemes>k__BackingField:
  - {fileID: 11400000, guid: a03e5cc0ea72eb443bf149cb88de19d5, type: 2}
  - {fileID: 11400000, guid: ae43dfbd22978a74092074bc991d94c6, type: 2}
  - {fileID: 11400000, guid: 5308b7721adb8ab4e845831840aa5cba, type: 2}
  <CustomizableType>k__BackingField: 8
  <InitiallyPurchased>k__BackingField: 1
  <InitiallyVisible>k__BackingField: 1
