%YAML 1.1
%TAG !u! tag:unity3d.com,2011:
--- !u!114 &11400000
MonoBehaviour:
  m_ObjectHideFlags: 0
  m_CorrespondingSourceObject: {fileID: 0}
  m_PrefabInstance: {fileID: 0}
  m_PrefabAsset: {fileID: 0}
  m_GameObject: {fileID: 0}
  m_Enabled: 1
  m_EditorHideFlags: 0
  m_Script: {fileID: 11500000, guid: 1287b5741c8109e4f9c65f4336219a9f, type: 3}
  m_Name: PlaceAndGrindIntoAnimationConfig
  m_EditorClassIdentifier: 
  LockPlayerMovement: 0
  PositionPlayerInFront: 1
  PlaceInMachineSocketWhileInteracting: 1
  ForceLookAt: 1
  AnimationToPlay: 9
  AnimationDelay: 0
  NeedsBothHands: 0
  ObjectToSpawnInHands: {fileID: 7974837397973761344, guid: 3479eb3887f0140fdb1c341d1b3d859c,
    type: 3}
