%YAML 1.1
%TAG !u! tag:unity3d.com,2011:
--- !u!181963792 &2655988077585873504
Preset:
  m_ObjectHideFlags: 0
  m_CorrespondingSourceObject: {fileID: 0}
  m_PrefabInstance: {fileID: 0}
  m_PrefabAsset: {fileID: 0}
  m_Name: PlantHealth
  m_TargetType:
    m_NativeTypeID: 114
    m_ManagedTypePPtr: {fileID: 11500000, guid: 9b9a1f8a77c0dd348a78951862a5fc6e,
      type: 3}
    m_ManagedTypeFallback: 
  m_Properties:
  - target: {fileID: 0}
    propertyPath: m_Enabled
    value: 1
    objectReference: {fileID: 0}
  - target: {fileID: 0}
    propertyPath: m_EditorHideFlags
    value: 0
    objectReference: {fileID: 0}
  - target: {fileID: 0}
    propertyPath: m_EditorClassIdentifier
    value: 
    objectReference: {fileID: 0}
  - target: {fileID: 0}
    propertyPath: _healthColors.key0.r
    value: 1
    objectReference: {fileID: 0}
  - target: {fileID: 0}
    propertyPath: _healthColors.key0.g
    value: 1
    objectReference: {fileID: 0}
  - target: {fileID: 0}
    propertyPath: _healthColors.key0.b
    value: 1
    objectReference: {fileID: 0}
  - target: {fileID: 0}
    propertyPath: _healthColors.key0.a
    value: 1
    objectReference: {fileID: 0}
  - target: {fileID: 0}
    propertyPath: _healthColors.key1.r
    value: 1
    objectReference: {fileID: 0}
  - target: {fileID: 0}
    propertyPath: _healthColors.key1.g
    value: 1
    objectReference: {fileID: 0}
  - target: {fileID: 0}
    propertyPath: _healthColors.key1.b
    value: 1
    objectReference: {fileID: 0}
  - target: {fileID: 0}
    propertyPath: _healthColors.key1.a
    value: 1
    objectReference: {fileID: 0}
  - target: {fileID: 0}
    propertyPath: _healthColors.key2.r
    value: 0
    objectReference: {fileID: 0}
  - target: {fileID: 0}
    propertyPath: _healthColors.key2.g
    value: 0
    objectReference: {fileID: 0}
  - target: {fileID: 0}
    propertyPath: _healthColors.key2.b
    value: 0
    objectReference: {fileID: 0}
  - target: {fileID: 0}
    propertyPath: _healthColors.key2.a
    value: 0
    objectReference: {fileID: 0}
  - target: {fileID: 0}
    propertyPath: _healthColors.key3.r
    value: 0
    objectReference: {fileID: 0}
  - target: {fileID: 0}
    propertyPath: _healthColors.key3.g
    value: 0
    objectReference: {fileID: 0}
  - target: {fileID: 0}
    propertyPath: _healthColors.key3.b
    value: 0
    objectReference: {fileID: 0}
  - target: {fileID: 0}
    propertyPath: _healthColors.key3.a
    value: 0
    objectReference: {fileID: 0}
  - target: {fileID: 0}
    propertyPath: _healthColors.key4.r
    value: 0
    objectReference: {fileID: 0}
  - target: {fileID: 0}
    propertyPath: _healthColors.key4.g
    value: 0
    objectReference: {fileID: 0}
  - target: {fileID: 0}
    propertyPath: _healthColors.key4.b
    value: 0
    objectReference: {fileID: 0}
  - target: {fileID: 0}
    propertyPath: _healthColors.key4.a
    value: 0
    objectReference: {fileID: 0}
  - target: {fileID: 0}
    propertyPath: _healthColors.key5.r
    value: 0
    objectReference: {fileID: 0}
  - target: {fileID: 0}
    propertyPath: _healthColors.key5.g
    value: 0
    objectReference: {fileID: 0}
  - target: {fileID: 0}
    propertyPath: _healthColors.key5.b
    value: 0
    objectReference: {fileID: 0}
  - target: {fileID: 0}
    propertyPath: _healthColors.key5.a
    value: 0
    objectReference: {fileID: 0}
  - target: {fileID: 0}
    propertyPath: _healthColors.key6.r
    value: 0
    objectReference: {fileID: 0}
  - target: {fileID: 0}
    propertyPath: _healthColors.key6.g
    value: 0
    objectReference: {fileID: 0}
  - target: {fileID: 0}
    propertyPath: _healthColors.key6.b
    value: 0
    objectReference: {fileID: 0}
  - target: {fileID: 0}
    propertyPath: _healthColors.key6.a
    value: 0
    objectReference: {fileID: 0}
  - target: {fileID: 0}
    propertyPath: _healthColors.key7.r
    value: 0
    objectReference: {fileID: 0}
  - target: {fileID: 0}
    propertyPath: _healthColors.key7.g
    value: 0
    objectReference: {fileID: 0}
  - target: {fileID: 0}
    propertyPath: _healthColors.key7.b
    value: 0
    objectReference: {fileID: 0}
  - target: {fileID: 0}
    propertyPath: _healthColors.key7.a
    value: 0
    objectReference: {fileID: 0}
  - target: {fileID: 0}
    propertyPath: _healthColors.ctime0
    value: 0
    objectReference: {fileID: 0}
  - target: {fileID: 0}
    propertyPath: _healthColors.ctime1
    value: 65535
    objectReference: {fileID: 0}
  - target: {fileID: 0}
    propertyPath: _healthColors.ctime2
    value: 0
    objectReference: {fileID: 0}
  - target: {fileID: 0}
    propertyPath: _healthColors.ctime3
    value: 0
    objectReference: {fileID: 0}
  - target: {fileID: 0}
    propertyPath: _healthColors.ctime4
    value: 0
    objectReference: {fileID: 0}
  - target: {fileID: 0}
    propertyPath: _healthColors.ctime5
    value: 0
    objectReference: {fileID: 0}
  - target: {fileID: 0}
    propertyPath: _healthColors.ctime6
    value: 0
    objectReference: {fileID: 0}
  - target: {fileID: 0}
    propertyPath: _healthColors.ctime7
    value: 0
    objectReference: {fileID: 0}
  - target: {fileID: 0}
    propertyPath: _healthColors.atime0
    value: 0
    objectReference: {fileID: 0}
  - target: {fileID: 0}
    propertyPath: _healthColors.atime1
    value: 65535
    objectReference: {fileID: 0}
  - target: {fileID: 0}
    propertyPath: _healthColors.atime2
    value: 0
    objectReference: {fileID: 0}
  - target: {fileID: 0}
    propertyPath: _healthColors.atime3
    value: 0
    objectReference: {fileID: 0}
  - target: {fileID: 0}
    propertyPath: _healthColors.atime4
    value: 0
    objectReference: {fileID: 0}
  - target: {fileID: 0}
    propertyPath: _healthColors.atime5
    value: 0
    objectReference: {fileID: 0}
  - target: {fileID: 0}
    propertyPath: _healthColors.atime6
    value: 0
    objectReference: {fileID: 0}
  - target: {fileID: 0}
    propertyPath: _healthColors.atime7
    value: 0
    objectReference: {fileID: 0}
  - target: {fileID: 0}
    propertyPath: _healthColors.m_Mode
    value: 0
    objectReference: {fileID: 0}
  - target: {fileID: 0}
    propertyPath: _healthColors.m_ColorSpace
    value: -1
    objectReference: {fileID: 0}
  - target: {fileID: 0}
    propertyPath: _healthColors.m_NumColorKeys
    value: 2
    objectReference: {fileID: 0}
  - target: {fileID: 0}
    propertyPath: _healthColors.m_NumAlphaKeys
    value: 2
    objectReference: {fileID: 0}
  - target: {fileID: 0}
    propertyPath: _currentHealthStatus
    value: 1
    objectReference: {fileID: 0}
  m_ExcludedProperties: []
  m_CoupledType:
    m_NativeTypeID: 0
    m_ManagedTypePPtr: {fileID: 0}
    m_ManagedTypeFallback: 
  m_CoupledProperties: []
