%YAML 1.1
%TAG !u! tag:unity3d.com,2011:
--- !u!181963792 &2655988077585873504
Preset:
  m_ObjectHideFlags: 0
  m_CorrespondingSourceObject: {fileID: 0}
  m_PrefabInstance: {fileID: 0}
  m_PrefabAsset: {fileID: 0}
  m_Name: PlantGrowth
  m_TargetType:
    m_NativeTypeID: 114
    m_ManagedTypePPtr: {fileID: 11500000, guid: 88f56cfb88084524c86a9ce040feb66c,
      type: 3}
    m_ManagedTypeFallback: 
  m_Properties:
  - target: {fileID: 0}
    propertyPath: m_Enabled
    value: 1
    objectReference: {fileID: 0}
  - target: {fileID: 0}
    propertyPath: m_EditorHideFlags
    value: 0
    objectReference: {fileID: 0}
  - target: {fileID: 0}
    propertyPath: m_EditorClassIdentifier
    value: 
    objectReference: {fileID: 0}
  - target: {fileID: 0}
    propertyPath: _growthCurve.m_Curve.Array.size
    value: 0
    objectReference: {fileID: 0}
  - target: {fileID: 0}
    propertyPath: _growthCurve.m_PreInfinity
    value: 2
    objectReference: {fileID: 0}
  - target: {fileID: 0}
    propertyPath: _growthCurve.m_PostInfinity
    value: 2
    objectReference: {fileID: 0}
  - target: {fileID: 0}
    propertyPath: _growthCurve.m_RotationOrder
    value: 4
    objectReference: {fileID: 0}
  - target: {fileID: 0}
    propertyPath: _currentGrowth
    value: 1
    objectReference: {fileID: 0}
  m_ExcludedProperties: []
  m_CoupledType:
    m_NativeTypeID: 0
    m_ManagedTypePPtr: {fileID: 0}
    m_ManagedTypeFallback: 
  m_CoupledProperties: []
