%YAML 1.1
%TAG !u! tag:unity3d.com,2011:
--- !u!114 &11400000
MonoBehaviour:
  m_ObjectHideFlags: 0
  m_CorrespondingSourceObject: {fileID: 0}
  m_PrefabInstance: {fileID: 0}
  m_PrefabAsset: {fileID: 0}
  m_GameObject: {fileID: 0}
  m_Enabled: 1
  m_EditorHideFlags: 0
  m_Script: {fileID: 11500000, guid: a5039060109c5fb42bd010e2ed4d16ef, type: 3}
  m_Name: FoamTypeConfig
  m_EditorClassIdentifier: 
  <NoneRange>k__BackingField: {x: 0, y: 20}
  <LargeRange>k__BackingField: {x: 20, y: 40}
  <HotMilkRange>k__BackingField: {x: 40, y: 60}
  <MicroRange>k__BackingField: {x: 60, y: 80}
  <YogurtRange>k__BackingField: {x: 80, y: 100}
