%YAML 1.1
%TAG !u! tag:unity3d.com,2011:
--- !u!221 &22100000
AnimatorOverrideController:
  m_ObjectHideFlags: 0
  m_CorrespondingSourceObject: {fileID: 0}
  m_PrefabInstance: {fileID: 0}
  m_PrefabAsset: {fileID: 0}
  m_Name: Milk_Pitcher_Espresso_Basic
  m_Controller: {fileID: 9100000, guid: 697216e4adfe6684b99df790918347bf, type: 2}
  m_Clips:
  - m_OriginalClip: {fileID: 7400000, guid: 03234dea20ed639499ccc0748d145ad6, type: 2}
    m_OverrideClip: {fileID: 7400000, guid: 2c0fff82b7da2864cb3c8d2effb016d4, type: 2}
  - m_OriginalClip: {fileID: 7400000, guid: 2c0fff82b7da2864cb3c8d2effb016d4, type: 2}
    m_OverrideClip: {fileID: 7400000, guid: 2c0fff82b7da2864cb3c8d2effb016d4, type: 2}
