%YAML 1.1
%TAG !u! tag:unity3d.com,2011:
--- !u!114 &11400000
MonoBehaviour:
  m_ObjectHideFlags: 0
  m_CorrespondingSourceObject: {fileID: 0}
  m_PrefabInstance: {fileID: 0}
  m_PrefabAsset: {fileID: 0}
  m_GameObject: {fileID: 0}
  m_Enabled: 1
  m_EditorHideFlags: 0
  m_Script: {fileID: 11500000, guid: 777e33cda3626a14c8e3649e4a0acb65, type: 3}
  m_Name: Raph_FrothingMechanicConfig
  m_EditorClassIdentifier: 
  <MicroInitialWidth>k__BackingField: 20
  <LargeInitialWidth>k__BackingField: 20
  <CenterInitialWidth>k__BackingField: 80
  <MaxWidthForFoam>k__BackingField: 80
  <MinWidthForFoam>k__BackingField: 20
  <CenterGrowingRatePerSecond>k__BackingField:
    serializedVersion: 2
    m_Curve:
    - serializedVersion: 3
      time: 0
      value: 0
      inSlope: 0
      outSlope: 0
      tangentMode: 0
      weightedMode: 0
      inWeight: 0
      outWeight: 0
    - serializedVersion: 3
      time: 1
      value: 1
      inSlope: 0
      outSlope: 0
      tangentMode: 0
      weightedMode: 0
      inWeight: 0
      outWeight: 0
    m_PreInfinity: 2
    m_PostInfinity: 2
    m_RotationOrder: 4
  <InZoneGrowingRatePerSecond>k__BackingField: 20
  <ShrinkingRatePerSecond>k__BackingField: 8
  <GameDuration>k__BackingField: 5
  <InputSmoothing>k__BackingField: 3
  <TimeToShowFeedback>k__BackingField: 2
  <FrothingSensitivity>k__BackingField: 0.5
  <FoamTypeConfig>k__BackingField: {fileID: 11400000, guid: ab1804627df7b404fb1cd8a7236effcd,
    type: 2}
