%YAML 1.1
%TAG !u! tag:unity3d.com,2011:
--- !u!181963792 &2655988077585873504
Preset:
  m_ObjectHideFlags: 0
  m_CorrespondingSourceObject: {fileID: 0}
  m_PrefabInstance: {fileID: 0}
  m_PrefabAsset: {fileID: 0}
  m_Name: Cup
  m_TargetType:
    m_NativeTypeID: 114
    m_ManagedTypePPtr: {fileID: 11500000, guid: a787d1a72993701439235912615ac33d,
      type: 3}
    m_ManagedTypeFallback: 
  m_Properties:
  - target: {fileID: 0}
    propertyPath: m_Enabled
    value: 1
    objectReference: {fileID: 0}
  - target: {fileID: 0}
    propertyPath: m_EditorHideFlags
    value: 0
    objectReference: {fileID: 0}
  - target: {fileID: 0}
    propertyPath: m_EditorClassIdentifier
    value: 
    objectReference: {fileID: 0}
  - target: {fileID: 0}
    propertyPath: _ignoreFromInteraction
    value: 0
    objectReference: {fileID: 0}
  - target: {fileID: 0}
    propertyPath: _objectStateEventController
    value: 
    objectReference: {fileID: 0}
  - target: {fileID: 0}
    propertyPath: _screenWidthPercentageUIOffset
    value: 0
    objectReference: {fileID: 0}
  - target: {fileID: 0}
    propertyPath: _screenHeightPercentageUIOffset
    value: 0
    objectReference: {fileID: 0}
  - target: {fileID: 0}
    propertyPath: _interactionDirection
    value: 15
    objectReference: {fileID: 0}
  - target: {fileID: 0}
    propertyPath: _interactionActions.Array.size
    value: 0
    objectReference: {fileID: 0}
  - target: {fileID: 0}
    propertyPath: _interactableIcon
    value: 
    objectReference: {fileID: 0}
  - target: {fileID: 0}
    propertyPath: _interactableName
    value: Cup
    objectReference: {fileID: 0}
  - target: {fileID: 0}
    propertyPath: _throwingCurve.m_Curve.Array.size
    value: 0
    objectReference: {fileID: 0}
  - target: {fileID: 0}
    propertyPath: _throwingCurve.m_PreInfinity
    value: 2
    objectReference: {fileID: 0}
  - target: {fileID: 0}
    propertyPath: _throwingCurve.m_PostInfinity
    value: 2
    objectReference: {fileID: 0}
  - target: {fileID: 0}
    propertyPath: _throwingCurve.m_RotationOrder
    value: 4
    objectReference: {fileID: 0}
  - target: {fileID: 0}
    propertyPath: _ikHandle
    value: 
    objectReference: {fileID: 0}
  - target: {fileID: 0}
    propertyPath: <OrderType>k__BackingField
    value: 0
    objectReference: {fileID: 0}
  - target: {fileID: 0}
    propertyPath: _isLidOnOnStart
    value: 0
    objectReference: {fileID: 0}
  - target: {fileID: 0}
    propertyPath: _stay
    value: 
    objectReference: {fileID: 0}
  - target: {fileID: 0}
    propertyPath: _togo
    value: 
    objectReference: {fileID: 0}
  - target: {fileID: 0}
    propertyPath: _togoSprite
    value: 
    objectReference: {fileID: 0}
  - target: {fileID: 0}
    propertyPath: _staySprite
    value: 
    objectReference: {fileID: 0}
  - target: {fileID: 0}
    propertyPath: _cappuccinoRecipeData
    value: 
    objectReference: {fileID: 0}
  - target: {fileID: 0}
    propertyPath: _latteRecipeData
    value: 
    objectReference: {fileID: 0}
  - target: {fileID: 0}
    propertyPath: _togoHandle
    value: 
    objectReference: {fileID: 0}
  - target: {fileID: 0}
    propertyPath: _stayHandle
    value: 
    objectReference: {fileID: 0}
  m_ExcludedProperties: []
  m_CoupledType:
    m_NativeTypeID: 0
    m_ManagedTypePPtr: {fileID: 0}
    m_ManagedTypeFallback: 
  m_CoupledProperties: []
