%YAML 1.1
%TAG !u! tag:unity3d.com,2011:
--- !u!114 &11400000
MonoBehaviour:
  m_ObjectHideFlags: 0
  m_CorrespondingSourceObject: {fileID: 0}
  m_PrefabInstance: {fileID: 0}
  m_PrefabAsset: {fileID: 0}
  m_GameObject: {fileID: 0}
  m_Enabled: 1
  m_EditorHideFlags: 0
  m_Script: {fileID: 11500000, guid: 6aa8ea51e9545d04b8ab022d43de2a6b, type: 3}
  m_Name: Haiti
  m_EditorClassIdentifier: 
  <CoffeeOrigin>k__BackingField:
    <Origin>k__BackingField: 26
    <OriginSprite>k__BackingField: {fileID: 0}
