%YAML 1.1
%TAG !u! tag:unity3d.com,2011:
--- !u!114 &11400000
MonoBehaviour:
  m_ObjectHideFlags: 0
  m_CorrespondingSourceObject: {fileID: 0}
  m_PrefabInstance: {fileID: 0}
  m_PrefabAsset: {fileID: 0}
  m_GameObject: {fileID: 0}
  m_Enabled: 1
  m_EditorHideFlags: 0
  m_Script: {fileID: 11500000, guid: 4b6819fe91f77ff4c98bdd957fd3b2ba, type: 3}
  m_Name: Product_GreenCoffeeBag_60kg
  m_EditorClassIdentifier: 
  <Product>k__BackingField:
    ProductName: Green Coffee Jute
    Icon: {fileID: 0}
    Price: 800
    DeliveryTimeInDays: 2
    ProductPrefab: {fileID: 7403128758445094410, guid: cd2dd191cc2999d4d9acde111d7c1b9b,
      type: 3}
