%YAML 1.1
%TAG !u! tag:unity3d.com,2011:
--- !u!114 &11400000
MonoBehaviour:
  m_ObjectHideFlags: 0
  m_CorrespondingSourceObject: {fileID: 0}
  m_PrefabInstance: {fileID: 0}
  m_PrefabAsset: {fileID: 0}
  m_GameObject: {fileID: 0}
  m_Enabled: 1
  m_EditorHideFlags: 0
  m_Script: {fileID: 11500000, guid: 475801aed065e454c8fa8c3f95aa4866, type: 3}
  m_Name: Store_Category_Coffee
  m_EditorClassIdentifier: 
  CategoryName: Roasted coffee
  Products:
  - {fileID: 11400000, guid: a65553356610b6c4d85d67b91e701b5c, type: 2}
  - {fileID: 11400000, guid: 95e28ec7f21573144b33b18b677de096, type: 2}
  CoffeeMarketStore: {fileID: 11400000, guid: 9527ee83c315fdc458f97112355520ec, type: 2}
