%YAML 1.1
%TAG !u! tag:unity3d.com,2011:
--- !u!114 &11400000
MonoBehaviour:
  m_ObjectHideFlags: 0
  m_CorrespondingSourceObject: {fileID: 0}
  m_PrefabInstance: {fileID: 0}
  m_PrefabAsset: {fileID: 0}
  m_GameObject: {fileID: 0}
  m_Enabled: 1
  m_EditorHideFlags: 0
  m_Script: {fileID: 11500000, guid: 719844648684cc54eb80a516ab140ea9, type: 3}
  m_Name: DAY_0_GetPaid_TaskData
  m_EditorClassIdentifier: 
  <TaskData>k__BackingField:
    <TaskName>k__BackingField: Get paid
    <SubTaskDataList>k__BackingField:
    - <TaskDescription>k__BackingField: Get your end of day paycheck in Boss's office
      <ProgressCompletionAmount>k__BackingField: 1
      <DisplayConfig>k__BackingField: 0
      <CompletionEventKey>k__BackingField: 9
    GameEventSentOnTaskCompletion:
      Key: 16
      Value: 25
      ID: 
