%YAML 1.1
%TAG !u! tag:unity3d.com,2011:
--- !u!114 &11400000
MonoBehaviour:
  m_ObjectHideFlags: 0
  m_CorrespondingSourceObject: {fileID: 0}
  m_PrefabInstance: {fileID: 0}
  m_PrefabAsset: {fileID: 0}
  m_GameObject: {fileID: 0}
  m_Enabled: 1
  m_EditorHideFlags: 0
  m_Script: {fileID: 11500000, guid: 719844648684cc54eb80a516ab140ea9, type: 3}
  m_Name: DAY_0_GetPhone_TaskData
  m_EditorClassIdentifier: 
  <TaskData>k__BackingField:
    <TaskName>k__BackingField: Buzz Buzz...
    <SubTaskDataList>k__BackingField:
    - <TaskDescription>k__BackingField: Pick up the phone on the desk
      <ProgressCompletionAmount>k__BackingField: 0
      <DisplayConfig>k__BackingField: 0
      <CompletionEventKey>k__BackingField: 0
    - <TaskDescription>k__BackingField: Check your messages
      <ProgressCompletionAmount>k__BackingField: 0
      <DisplayConfig>k__BackingField: 0
      <CompletionEventKey>k__BackingField: 5
    GameEventSentOnTaskCompletion:
      Key: 12
      Value: 1
      ID: 
