%YAML 1.1
%TAG !u! tag:unity3d.com,2011:
--- !u!221 &22100000
AnimatorOverrideController:
  m_ObjectHideFlags: 0
  m_CorrespondingSourceObject: {fileID: 0}
  m_PrefabInstance: {fileID: 0}
  m_PrefabAsset: {fileID: 0}
  m_Name: BatchBrew_Pouring_Dripper
  m_Controller: {fileID: 9100000, guid: bde7a8f66f99f8e4f82a794b38b93eed, type: 2}
  m_Clips:
  - m_OriginalClip: {fileID: 7400000, guid: b6052a7e6d0d3fd41938a0fc1726f544, type: 2}
    m_OverrideClip: {fileID: 7400000, guid: 2253b0d532745284fac2dfa202371bd0, type: 2}
