%YAML 1.1
%TAG !u! tag:unity3d.com,2011:
--- !u!1001 &2169863247159721385
PrefabInstance:
  m_ObjectHideFlags: 0
  serializedVersion: 2
  m_Modification:
    serializedVersion: 3
    m_TransformParent: {fileID: 6353497780231576439}
    m_Modifications:
    - target: {fileID: -8679921383154817045, guid: 8e5c18073a100c14b916f748b6c586ee,
        type: 3}
      propertyPath: m_RootOrder
      value: 0
      objectReference: {fileID: 0}
    - target: {fileID: -8679921383154817045, guid: 8e5c18073a100c14b916f748b6c586ee,
        type: 3}
      propertyPath: m_LocalPosition.x
      value: 0.008654022
      objectReference: {fileID: 0}
    - target: {fileID: -8679921383154817045, guid: 8e5c18073a100c14b916f748b6c586ee,
        type: 3}
      propertyPath: m_LocalPosition.y
      value: 0.9132673
      objectReference: {fileID: 0}
    - target: {fileID: -8679921383154817045, guid: 8e5c18073a100c14b916f748b6c586ee,
        type: 3}
      propertyPath: m_LocalPosition.z
      value: 0.39774662
      objectReference: {fileID: 0}
    - target: {fileID: -8679921383154817045, guid: 8e5c18073a100c14b916f748b6c586ee,
        type: 3}
      propertyPath: m_LocalRotation.w
      value: 1
      objectReference: {fileID: 0}
    - target: {fileID: -8679921383154817045, guid: 8e5c18073a100c14b916f748b6c586ee,
        type: 3}
      propertyPath: m_LocalRotation.x
      value: 0.00000008146034
      objectReference: {fileID: 0}
    - target: {fileID: -8679921383154817045, guid: 8e5c18073a100c14b916f748b6c586ee,
        type: 3}
      propertyPath: m_LocalRotation.y
      value: 0
      objectReference: {fileID: 0}
    - target: {fileID: -8679921383154817045, guid: 8e5c18073a100c14b916f748b6c586ee,
        type: 3}
      propertyPath: m_LocalRotation.z
      value: -0
      objectReference: {fileID: 0}
    - target: {fileID: -8679921383154817045, guid: 8e5c18073a100c14b916f748b6c586ee,
        type: 3}
      propertyPath: m_LocalEulerAnglesHint.x
      value: 0
      objectReference: {fileID: 0}
    - target: {fileID: -8679921383154817045, guid: 8e5c18073a100c14b916f748b6c586ee,
        type: 3}
      propertyPath: m_LocalEulerAnglesHint.y
      value: 0
      objectReference: {fileID: 0}
    - target: {fileID: -8679921383154817045, guid: 8e5c18073a100c14b916f748b6c586ee,
        type: 3}
      propertyPath: m_LocalEulerAnglesHint.z
      value: 0
      objectReference: {fileID: 0}
    - target: {fileID: -7511558181221131132, guid: 8e5c18073a100c14b916f748b6c586ee,
        type: 3}
      propertyPath: 'm_Materials.Array.data[0]'
      value: 
      objectReference: {fileID: 2100000, guid: c50bb94f7c07adb4db8f3bee453c307c, type: 2}
    - target: {fileID: 919132149155446097, guid: 8e5c18073a100c14b916f748b6c586ee,
        type: 3}
      propertyPath: m_Name
      value: Fireplace_glass
      objectReference: {fileID: 0}
    m_RemovedComponents: []
    m_RemovedGameObjects: []
    m_AddedGameObjects: []
    m_AddedComponents: []
  m_SourcePrefab: {fileID: 100100000, guid: 8e5c18073a100c14b916f748b6c586ee, type: 3}
--- !u!4 &1843764851057105474 stripped
Transform:
  m_CorrespondingSourceObject: {fileID: -8679921383154817045, guid: 8e5c18073a100c14b916f748b6c586ee,
    type: 3}
  m_PrefabInstance: {fileID: 2169863247159721385}
  m_PrefabAsset: {fileID: 0}
--- !u!1001 &6892356726315744412
PrefabInstance:
  m_ObjectHideFlags: 0
  serializedVersion: 2
  m_Modification:
    serializedVersion: 3
    m_TransformParent: {fileID: 0}
    m_Modifications:
    - target: {fileID: -8679921383154817045, guid: 1a26a79783c62cc4b80a16dcffd9f3a9,
        type: 3}
      propertyPath: m_RootOrder
      value: 0
      objectReference: {fileID: 0}
    - target: {fileID: -8679921383154817045, guid: 1a26a79783c62cc4b80a16dcffd9f3a9,
        type: 3}
      propertyPath: m_LocalPosition.x
      value: 3.303
      objectReference: {fileID: 0}
    - target: {fileID: -8679921383154817045, guid: 1a26a79783c62cc4b80a16dcffd9f3a9,
        type: 3}
      propertyPath: m_LocalPosition.y
      value: 4.308571
      objectReference: {fileID: 0}
    - target: {fileID: -8679921383154817045, guid: 1a26a79783c62cc4b80a16dcffd9f3a9,
        type: 3}
      propertyPath: m_LocalPosition.z
      value: 9.876
      objectReference: {fileID: 0}
    - target: {fileID: -8679921383154817045, guid: 1a26a79783c62cc4b80a16dcffd9f3a9,
        type: 3}
      propertyPath: m_LocalRotation.w
      value: 0.0000029504295
      objectReference: {fileID: 0}
    - target: {fileID: -8679921383154817045, guid: 1a26a79783c62cc4b80a16dcffd9f3a9,
        type: 3}
      propertyPath: m_LocalRotation.x
      value: -0
      objectReference: {fileID: 0}
    - target: {fileID: -8679921383154817045, guid: 1a26a79783c62cc4b80a16dcffd9f3a9,
        type: 3}
      propertyPath: m_LocalRotation.y
      value: -1
      objectReference: {fileID: 0}
    - target: {fileID: -8679921383154817045, guid: 1a26a79783c62cc4b80a16dcffd9f3a9,
        type: 3}
      propertyPath: m_LocalRotation.z
      value: -0
      objectReference: {fileID: 0}
    - target: {fileID: -8679921383154817045, guid: 1a26a79783c62cc4b80a16dcffd9f3a9,
        type: 3}
      propertyPath: m_LocalEulerAnglesHint.x
      value: 0
      objectReference: {fileID: 0}
    - target: {fileID: -8679921383154817045, guid: 1a26a79783c62cc4b80a16dcffd9f3a9,
        type: 3}
      propertyPath: m_LocalEulerAnglesHint.y
      value: -180
      objectReference: {fileID: 0}
    - target: {fileID: -8679921383154817045, guid: 1a26a79783c62cc4b80a16dcffd9f3a9,
        type: 3}
      propertyPath: m_LocalEulerAnglesHint.z
      value: 0
      objectReference: {fileID: 0}
    - target: {fileID: -3530722532248670027, guid: 1a26a79783c62cc4b80a16dcffd9f3a9,
        type: 3}
      propertyPath: m_CastShadows
      value: 2
      objectReference: {fileID: 0}
    - target: {fileID: 919132149155446097, guid: 1a26a79783c62cc4b80a16dcffd9f3a9,
        type: 3}
      propertyPath: m_Name
      value: Fireplace Variant
      objectReference: {fileID: 0}
    - target: {fileID: 8424073627695423409, guid: 1a26a79783c62cc4b80a16dcffd9f3a9,
        type: 3}
      propertyPath: m_CastShadows
      value: 2
      objectReference: {fileID: 0}
    m_RemovedComponents: []
    m_RemovedGameObjects: []
    m_AddedGameObjects:
    - targetCorrespondingSourceObject: {fileID: -8679921383154817045, guid: 1a26a79783c62cc4b80a16dcffd9f3a9,
        type: 3}
      insertIndex: -1
      addedObject: {fileID: 1843764851057105474}
    m_AddedComponents: []
  m_SourcePrefab: {fileID: 100100000, guid: 1a26a79783c62cc4b80a16dcffd9f3a9, type: 3}
--- !u!4 &6353497780231576439 stripped
Transform:
  m_CorrespondingSourceObject: {fileID: -8679921383154817045, guid: 1a26a79783c62cc4b80a16dcffd9f3a9,
    type: 3}
  m_PrefabInstance: {fileID: 6892356726315744412}
  m_PrefabAsset: {fileID: 0}
