%YAML 1.1
%TAG !u! tag:unity3d.com,2011:
--- !u!114 &11400000
MonoBehaviour:
  m_ObjectHideFlags: 0
  m_CorrespondingSourceObject: {fileID: 0}
  m_PrefabInstance: {fileID: 0}
  m_PrefabAsset: {fileID: 0}
  m_GameObject: {fileID: 0}
  m_Enabled: 1
  m_EditorHideFlags: 0
  m_Script: {fileID: 11500000, guid: 15f0e7739d3f4d64098566555112c53f, type: 3}
  m_Name: Barista
  m_EditorClassIdentifier: 
  <Name>k__BackingField: Barista Mode
  <Icon>k__BackingField: {fileID: 292383065, guid: 4ebbee79ae3ab3847a692b39d38a2669,
    type: 3}
  <SelectedIcon>k__BackingField: {fileID: -958505062, guid: 4ebbee79ae3ab3847a692b39d38a2669,
    type: 3}
  OnAction: 1
