%YAML 1.1
%TAG !u! tag:unity3d.com,2011:
--- !u!114 &11400000
MonoBehaviour:
  m_ObjectHideFlags: 0
  m_CorrespondingSourceObject: {fileID: 0}
  m_PrefabInstance: {fileID: 0}
  m_PrefabAsset: {fileID: 0}
  m_GameObject: {fileID: 0}
  m_Enabled: 1
  m_EditorHideFlags: 0
  m_Script: {fileID: 11500000, guid: 50fcdf8484fc9fc43a47149ef32426fd, type: 3}
  m_Name: DefaultEyes
  m_EditorClassIdentifier: 
  <CustomizationReceiver>k__BackingField: {fileID: 0}
  <Icon>k__BackingField: {fileID: -224372676, guid: ec7395896d09f614e826e3c2082045ca,
    type: 3}
  <ItemName>k__BackingField: Default Eyes
  <AvailableThemes>k__BackingField:
  - {fileID: 11400000, guid: 0e35c2e9e73aa6b4b80618e5c97214cf, type: 2}
  - {fileID: 11400000, guid: a3091ad0f6a55dd44b8c593b9611f18c, type: 2}
  - {fileID: 11400000, guid: 363475e8171a32a4787fce43e03e2358, type: 2}
  - {fileID: 11400000, guid: fc760004b3145e8498a3a1b6fc754c6f, type: 2}
  <CustomizableType>k__BackingField: 1
  <InitiallyPurchased>k__BackingField: 1
  <InitiallyVisible>k__BackingField: 1
