%YAML 1.1
%TAG !u! tag:unity3d.com,2011:
--- !u!1001 &1211340733617421640
PrefabInstance:
  m_ObjectHideFlags: 0
  serializedVersion: 2
  m_Modification:
    serializedVersion: 3
    m_TransformParent: {fileID: 0}
    m_Modifications:
    - target: {fileID: -8679921383154817045, guid: cbb22f0faa92e034eb35952c1f415ce5,
        type: 3}
      propertyPath: m_RootOrder
      value: 0
      objectReference: {fileID: 0}
    - target: {fileID: -8679921383154817045, guid: cbb22f0faa92e034eb35952c1f415ce5,
        type: 3}
      propertyPath: m_LocalPosition.x
      value: 0
      objectReference: {fileID: 0}
    - target: {fileID: -8679921383154817045, guid: cbb22f0faa92e034eb35952c1f415ce5,
        type: 3}
      propertyPath: m_LocalPosition.y
      value: 0
      objectReference: {fileID: 0}
    - target: {fileID: -8679921383154817045, guid: cbb22f0faa92e034eb35952c1f415ce5,
        type: 3}
      propertyPath: m_LocalPosition.z
      value: 0
      objectReference: {fileID: 0}
    - target: {fileID: -8679921383154817045, guid: cbb22f0faa92e034eb35952c1f415ce5,
        type: 3}
      propertyPath: m_LocalRotation.w
      value: 1
      objectReference: {fileID: 0}
    - target: {fileID: -8679921383154817045, guid: cbb22f0faa92e034eb35952c1f415ce5,
        type: 3}
      propertyPath: m_LocalRotation.x
      value: 0
      objectReference: {fileID: 0}
    - target: {fileID: -8679921383154817045, guid: cbb22f0faa92e034eb35952c1f415ce5,
        type: 3}
      propertyPath: m_LocalRotation.y
      value: 0
      objectReference: {fileID: 0}
    - target: {fileID: -8679921383154817045, guid: cbb22f0faa92e034eb35952c1f415ce5,
        type: 3}
      propertyPath: m_LocalRotation.z
      value: 0
      objectReference: {fileID: 0}
    - target: {fileID: -8679921383154817045, guid: cbb22f0faa92e034eb35952c1f415ce5,
        type: 3}
      propertyPath: m_LocalEulerAnglesHint.x
      value: 0
      objectReference: {fileID: 0}
    - target: {fileID: -8679921383154817045, guid: cbb22f0faa92e034eb35952c1f415ce5,
        type: 3}
      propertyPath: m_LocalEulerAnglesHint.y
      value: 0
      objectReference: {fileID: 0}
    - target: {fileID: -8679921383154817045, guid: cbb22f0faa92e034eb35952c1f415ce5,
        type: 3}
      propertyPath: m_LocalEulerAnglesHint.z
      value: 0
      objectReference: {fileID: 0}
    - target: {fileID: 919132149155446097, guid: cbb22f0faa92e034eb35952c1f415ce5,
        type: 3}
      propertyPath: m_Name
      value: Beard Variant
      objectReference: {fileID: 0}
    - target: {fileID: 919132149155446097, guid: cbb22f0faa92e034eb35952c1f415ce5,
        type: 3}
      propertyPath: m_Layer
      value: 9
      objectReference: {fileID: 0}
    m_RemovedComponents: []
    m_RemovedGameObjects: []
    m_AddedGameObjects: []
    m_AddedComponents:
    - targetCorrespondingSourceObject: {fileID: 919132149155446097, guid: cbb22f0faa92e034eb35952c1f415ce5,
        type: 3}
      insertIndex: -1
      addedObject: {fileID: 4190930362282827045}
  m_SourcePrefab: {fileID: 100100000, guid: cbb22f0faa92e034eb35952c1f415ce5, type: 3}
--- !u!23 &508377185801249228 stripped
MeshRenderer:
  m_CorrespondingSourceObject: {fileID: -7511558181221131132, guid: cbb22f0faa92e034eb35952c1f415ce5,
    type: 3}
  m_PrefabInstance: {fileID: 1211340733617421640}
  m_PrefabAsset: {fileID: 0}
--- !u!1 &2021801958477070361 stripped
GameObject:
  m_CorrespondingSourceObject: {fileID: 919132149155446097, guid: cbb22f0faa92e034eb35952c1f415ce5,
    type: 3}
  m_PrefabInstance: {fileID: 1211340733617421640}
  m_PrefabAsset: {fileID: 0}
--- !u!114 &4190930362282827045
MonoBehaviour:
  m_ObjectHideFlags: 0
  m_CorrespondingSourceObject: {fileID: 0}
  m_PrefabInstance: {fileID: 0}
  m_PrefabAsset: {fileID: 0}
  m_GameObject: {fileID: 2021801958477070361}
  m_Enabled: 1
  m_EditorHideFlags: 0
  m_Script: {fileID: 11500000, guid: 4d0bf9781404fb542b6a1ca99a889f72, type: 3}
  m_Name: 
  m_EditorClassIdentifier: 
  <Renderers>k__BackingField:
  - {fileID: 508377185801249228}
