%YAML 1.1
%TAG !u! tag:unity3d.com,2011:
--- !u!114 &11400000
MonoBehaviour:
  m_ObjectHideFlags: 0
  m_CorrespondingSourceObject: {fileID: 0}
  m_PrefabInstance: {fileID: 0}
  m_PrefabAsset: {fileID: 0}
  m_GameObject: {fileID: 0}
  m_Enabled: 1
  m_EditorHideFlags: 0
  m_Script: {fileID: 11500000, guid: 53b143790c458b94b851887af7892ae7, type: 3}
  m_Name: GenericFeedbackEntry
  m_EditorClassIdentifier: 
  <FeedbackDisplayType>k__BackingField: -1
  <ThoughtsResultsMapping>k__BackingField:
    m_keys: 
    m_values: []
  <SocialResultsMapping>k__BackingField:
    m_keys: 0300000001000000
    m_values:
    - {fileID: 11400000, guid: 470a621bca3ab3b46b4a6ddfb4a6a48e, type: 2}
    - {fileID: 11400000, guid: 71d6aef972216564bbb3e0ac305427db, type: 2}
