%YAML 1.1
%TAG !u! tag:unity3d.com,2011:
--- !u!1001 &6571741660271257685
PrefabInstance:
  m_ObjectHideFlags: 0
  serializedVersion: 2
  m_Modification:
    serializedVersion: 3
    m_TransformParent: {fileID: 0}
    m_Modifications:
    - target: {fileID: 77386804767441853, guid: c950fb5e00e922f42896c029a764312d,
        type: 3}
      propertyPath: angle
      value: 0
      objectReference: {fileID: 0}
    - target: {fileID: 77386804767441853, guid: c950fb5e00e922f42896c029a764312d,
        type: 3}
      propertyPath: linearColor1.b
      value: 1
      objectReference: {fileID: 0}
    - target: {fileID: 77386804767441853, guid: c950fb5e00e922f42896c029a764312d,
        type: 3}
      propertyPath: linearColor1.g
      value: 1
      objectReference: {fileID: 0}
    - target: {fileID: 77386804767441853, guid: c950fb5e00e922f42896c029a764312d,
        type: 3}
      propertyPath: linearColor1.r
      value: 1
      objectReference: {fileID: 0}
    - target: {fileID: 77386804767441853, guid: c950fb5e00e922f42896c029a764312d,
        type: 3}
      propertyPath: linearColor2.b
      value: 0.8113208
      objectReference: {fileID: 0}
    - target: {fileID: 77386804767441853, guid: c950fb5e00e922f42896c029a764312d,
        type: 3}
      propertyPath: linearColor2.g
      value: 0.8113208
      objectReference: {fileID: 0}
    - target: {fileID: 77386804767441853, guid: c950fb5e00e922f42896c029a764312d,
        type: 3}
      propertyPath: linearColor2.r
      value: 0.8113208
      objectReference: {fileID: 0}
    - target: {fileID: 1098792905374144166, guid: c950fb5e00e922f42896c029a764312d,
        type: 3}
      propertyPath: m_LocalRotation.w
      value: 0.973207
      objectReference: {fileID: 0}
    - target: {fileID: 1098792905374144166, guid: c950fb5e00e922f42896c029a764312d,
        type: 3}
      propertyPath: m_LocalRotation.z
      value: -0.22993085
      objectReference: {fileID: 0}
    - target: {fileID: 1844338028469393091, guid: c950fb5e00e922f42896c029a764312d,
        type: 3}
      propertyPath: m_LocalRotation.w
      value: -0.00000004371139
      objectReference: {fileID: 0}
    - target: {fileID: 1844338028469393091, guid: c950fb5e00e922f42896c029a764312d,
        type: 3}
      propertyPath: m_LocalRotation.z
      value: -1
      objectReference: {fileID: 0}
    - target: {fileID: 2042225022130218218, guid: c950fb5e00e922f42896c029a764312d,
        type: 3}
      propertyPath: m_FillAmount
      value: 0
      objectReference: {fileID: 0}
    - target: {fileID: 2194610163701376522, guid: c950fb5e00e922f42896c029a764312d,
        type: 3}
      propertyPath: angle
      value: 88
      objectReference: {fileID: 0}
    - target: {fileID: 2194610163701376522, guid: c950fb5e00e922f42896c029a764312d,
        type: 3}
      propertyPath: linearColor2.b
      value: 0.6509434
      objectReference: {fileID: 0}
    - target: {fileID: 2194610163701376522, guid: c950fb5e00e922f42896c029a764312d,
        type: 3}
      propertyPath: linearColor2.g
      value: 0.5777922
      objectReference: {fileID: 0}
    - target: {fileID: 2194610163701376522, guid: c950fb5e00e922f42896c029a764312d,
        type: 3}
      propertyPath: linearColor2.r
      value: 0
      objectReference: {fileID: 0}
    - target: {fileID: 2574064041783946401, guid: c950fb5e00e922f42896c029a764312d,
        type: 3}
      propertyPath: m_FillAmount
      value: 0.21100001
      objectReference: {fileID: 0}
    - target: {fileID: 3212025725350174518, guid: c950fb5e00e922f42896c029a764312d,
        type: 3}
      propertyPath: m_LocalRotation.w
      value: 0.79356575
      objectReference: {fileID: 0}
    - target: {fileID: 3212025725350174518, guid: c950fb5e00e922f42896c029a764312d,
        type: 3}
      propertyPath: m_LocalRotation.z
      value: -0.6084845
      objectReference: {fileID: 0}
    - target: {fileID: 4234197379310000062, guid: c950fb5e00e922f42896c029a764312d,
        type: 3}
      propertyPath: m_Pivot.x
      value: 0.5
      objectReference: {fileID: 0}
    - target: {fileID: 4234197379310000062, guid: c950fb5e00e922f42896c029a764312d,
        type: 3}
      propertyPath: m_Pivot.y
      value: 0.5
      objectReference: {fileID: 0}
    - target: {fileID: 4234197379310000062, guid: c950fb5e00e922f42896c029a764312d,
        type: 3}
      propertyPath: m_RootOrder
      value: -1
      objectReference: {fileID: 0}
    - target: {fileID: 4234197379310000062, guid: c950fb5e00e922f42896c029a764312d,
        type: 3}
      propertyPath: m_AnchorMax.x
      value: 0.5
      objectReference: {fileID: 0}
    - target: {fileID: 4234197379310000062, guid: c950fb5e00e922f42896c029a764312d,
        type: 3}
      propertyPath: m_AnchorMax.y
      value: 0.5
      objectReference: {fileID: 0}
    - target: {fileID: 4234197379310000062, guid: c950fb5e00e922f42896c029a764312d,
        type: 3}
      propertyPath: m_AnchorMin.x
      value: 0.5
      objectReference: {fileID: 0}
    - target: {fileID: 4234197379310000062, guid: c950fb5e00e922f42896c029a764312d,
        type: 3}
      propertyPath: m_AnchorMin.y
      value: 0.5
      objectReference: {fileID: 0}
    - target: {fileID: 4234197379310000062, guid: c950fb5e00e922f42896c029a764312d,
        type: 3}
      propertyPath: m_SizeDelta.x
      value: 50
      objectReference: {fileID: 0}
    - target: {fileID: 4234197379310000062, guid: c950fb5e00e922f42896c029a764312d,
        type: 3}
      propertyPath: m_SizeDelta.y
      value: 50
      objectReference: {fileID: 0}
    - target: {fileID: 4234197379310000062, guid: c950fb5e00e922f42896c029a764312d,
        type: 3}
      propertyPath: m_LocalPosition.x
      value: 0
      objectReference: {fileID: 0}
    - target: {fileID: 4234197379310000062, guid: c950fb5e00e922f42896c029a764312d,
        type: 3}
      propertyPath: m_LocalPosition.y
      value: 0
      objectReference: {fileID: 0}
    - target: {fileID: 4234197379310000062, guid: c950fb5e00e922f42896c029a764312d,
        type: 3}
      propertyPath: m_LocalPosition.z
      value: 0
      objectReference: {fileID: 0}
    - target: {fileID: 4234197379310000062, guid: c950fb5e00e922f42896c029a764312d,
        type: 3}
      propertyPath: m_LocalRotation.w
      value: 1
      objectReference: {fileID: 0}
    - target: {fileID: 4234197379310000062, guid: c950fb5e00e922f42896c029a764312d,
        type: 3}
      propertyPath: m_LocalRotation.x
      value: -3.3881318e-21
      objectReference: {fileID: 0}
    - target: {fileID: 4234197379310000062, guid: c950fb5e00e922f42896c029a764312d,
        type: 3}
      propertyPath: m_LocalRotation.y
      value: -0
      objectReference: {fileID: 0}
    - target: {fileID: 4234197379310000062, guid: c950fb5e00e922f42896c029a764312d,
        type: 3}
      propertyPath: m_LocalRotation.z
      value: -0
      objectReference: {fileID: 0}
    - target: {fileID: 4234197379310000062, guid: c950fb5e00e922f42896c029a764312d,
        type: 3}
      propertyPath: m_AnchoredPosition.x
      value: 0
      objectReference: {fileID: 0}
    - target: {fileID: 4234197379310000062, guid: c950fb5e00e922f42896c029a764312d,
        type: 3}
      propertyPath: m_AnchoredPosition.y
      value: 0
      objectReference: {fileID: 0}
    - target: {fileID: 4234197379310000062, guid: c950fb5e00e922f42896c029a764312d,
        type: 3}
      propertyPath: m_LocalEulerAnglesHint.x
      value: 0
      objectReference: {fileID: 0}
    - target: {fileID: 4234197379310000062, guid: c950fb5e00e922f42896c029a764312d,
        type: 3}
      propertyPath: m_LocalEulerAnglesHint.y
      value: 0
      objectReference: {fileID: 0}
    - target: {fileID: 4234197379310000062, guid: c950fb5e00e922f42896c029a764312d,
        type: 3}
      propertyPath: m_LocalEulerAnglesHint.z
      value: 0
      objectReference: {fileID: 0}
    - target: {fileID: 4555475382020645325, guid: c950fb5e00e922f42896c029a764312d,
        type: 3}
      propertyPath: m_FillAmount
      value: 0
      objectReference: {fileID: 0}
    - target: {fileID: 4814576120737216634, guid: c950fb5e00e922f42896c029a764312d,
        type: 3}
      propertyPath: m_FillAmount
      value: 0.172
      objectReference: {fileID: 0}
    - target: {fileID: 5588284341502343759, guid: c950fb5e00e922f42896c029a764312d,
        type: 3}
      propertyPath: m_Name
      value: ObjectState_Base_Variant_Espresso_EDITOR_TOOL
      objectReference: {fileID: 0}
    - target: {fileID: 5588284341502343759, guid: c950fb5e00e922f42896c029a764312d,
        type: 3}
      propertyPath: m_IsActive
      value: 1
      objectReference: {fileID: 0}
    - target: {fileID: 5804679168070701768, guid: c950fb5e00e922f42896c029a764312d,
        type: 3}
      propertyPath: m_Color.b
      value: 1
      objectReference: {fileID: 0}
    - target: {fileID: 5804679168070701768, guid: c950fb5e00e922f42896c029a764312d,
        type: 3}
      propertyPath: m_Color.g
      value: 1
      objectReference: {fileID: 0}
    - target: {fileID: 5804679168070701768, guid: c950fb5e00e922f42896c029a764312d,
        type: 3}
      propertyPath: m_Color.r
      value: 1
      objectReference: {fileID: 0}
    - target: {fileID: 7139265756697939971, guid: c950fb5e00e922f42896c029a764312d,
        type: 3}
      propertyPath: m_FillAmount
      value: 0.05752647
      objectReference: {fileID: 0}
    m_RemovedComponents: []
    m_RemovedGameObjects: []
    m_AddedGameObjects: []
    m_AddedComponents:
    - targetCorrespondingSourceObject: {fileID: 5588284341502343759, guid: c950fb5e00e922f42896c029a764312d,
        type: 3}
      insertIndex: -1
      addedObject: {fileID: 5179377575590425391}
  m_SourcePrefab: {fileID: 100100000, guid: c950fb5e00e922f42896c029a764312d, type: 3}
--- !u!1 &1638772846228754970 stripped
GameObject:
  m_CorrespondingSourceObject: {fileID: 5588284341502343759, guid: c950fb5e00e922f42896c029a764312d,
    type: 3}
  m_PrefabInstance: {fileID: 6571741660271257685}
  m_PrefabAsset: {fileID: 0}
--- !u!114 &5179377575590425391
MonoBehaviour:
  m_ObjectHideFlags: 0
  m_CorrespondingSourceObject: {fileID: 0}
  m_PrefabInstance: {fileID: 0}
  m_PrefabAsset: {fileID: 0}
  m_GameObject: {fileID: 1638772846228754970}
  m_Enabled: 1
  m_EditorHideFlags: 0
  m_Script: {fileID: 11500000, guid: 37b227da5b088a941a5a7b912afcce58, type: 3}
  m_Name: 
  m_EditorClassIdentifier: 
  _controller: {fileID: 1910492890617591305}
  _config: {fileID: 11400000, guid: a4e7aa68155ebe84d86b92965844cd1f, type: 2}
  _isDialedIn: 1
--- !u!114 &1910492890617591305 stripped
MonoBehaviour:
  m_CorrespondingSourceObject: {fileID: 4733541670290792028, guid: c950fb5e00e922f42896c029a764312d,
    type: 3}
  m_PrefabInstance: {fileID: 6571741660271257685}
  m_PrefabAsset: {fileID: 0}
  m_GameObject: {fileID: 1638772846228754970}
  m_Enabled: 1
  m_EditorHideFlags: 0
  m_Script: {fileID: 11500000, guid: ef98a04f2c159f34d9f66ef5b2a45460, type: 3}
  m_Name: 
  m_EditorClassIdentifier: 
