%YAML 1.1
%TAG !u! tag:unity3d.com,2011:
--- !u!114 &11400000
MonoBehaviour:
  m_ObjectHideFlags: 0
  m_CorrespondingSourceObject: {fileID: 0}
  m_PrefabInstance: {fileID: 0}
  m_PrefabAsset: {fileID: 0}
  m_GameObject: {fileID: 0}
  m_Enabled: 1
  m_EditorHideFlags: 0
  m_Script: {fileID: 11500000, guid: 4b6819fe91f77ff4c98bdd957fd3b2ba, type: 3}
  m_Name: Product_Grinder_C
  m_EditorClassIdentifier: 
  <Product>k__BackingField:
    ProductName: Commercial Grinder
    Icon: {fileID: 21300000, guid: 8443581d9c71a6c48bc9e8d39d27b8fb, type: 3}
    Price: 650
    DeliveryTimeInDays: 2
    ProductPrefab: {fileID: 8062945213617219665, guid: ad5a0ea277f34304493d5f7a4a8e54e8,
      type: 3}
