%YAML 1.1
%TAG !u! tag:unity3d.com,2011:
--- !u!114 &11400000
MonoBehaviour:
  m_ObjectHideFlags: 0
  m_CorrespondingSourceObject: {fileID: 0}
  m_PrefabInstance: {fileID: 0}
  m_PrefabAsset: {fileID: 0}
  m_GameObject: {fileID: 0}
  m_Enabled: 1
  m_EditorHideFlags: 0
  m_Script: {fileID: 11500000, guid: 4b6819fe91f77ff4c98bdd957fd3b2ba, type: 3}
  m_Name: Product_Cups
  m_EditorClassIdentifier: 
  <Product>k__BackingField:
    ProductName: Cups
    Icon: {fileID: 0}
    Price: 10
    DeliveryTimeInDays: 1
    ProductPrefab: {fileID: 7071561479606638613, guid: 1ba3bb8d4ca624f49aadde6b76aeef18,
      type: 3}
