%YAML 1.1
%TAG !u! tag:unity3d.com,2011:
--- !u!114 &11400000
MonoBehaviour:
  m_ObjectHideFlags: 0
  m_CorrespondingSourceObject: {fileID: 0}
  m_PrefabInstance: {fileID: 0}
  m_PrefabAsset: {fileID: 0}
  m_GameObject: {fileID: 0}
  m_Enabled: 1
  m_EditorHideFlags: 0
  m_Script: {fileID: 11500000, guid: 4b6819fe91f77ff4c98bdd957fd3b2ba, type: 3}
  m_Name: Product_Grinder_A
  m_EditorClassIdentifier: 
  <Product>k__BackingField:
    ProductName: Hand Grinder
    Icon: {fileID: 0}
    Price: 80
    DeliveryTimeInDays: 1
    ProductPrefab: {fileID: 7946734206216151524, guid: a8ac24e02ee3f3640abeb44221e414ce,
      type: 3}
