%YAML 1.1
%TAG !u! tag:unity3d.com,2011:
--- !u!114 &11400000
MonoBehaviour:
  m_ObjectHideFlags: 0
  m_CorrespondingSourceObject: {fileID: 0}
  m_PrefabInstance: {fileID: 0}
  m_PrefabAsset: {fileID: 0}
  m_GameObject: {fileID: 0}
  m_Enabled: 1
  m_EditorHideFlags: 0
  m_Script: {fileID: 11500000, guid: 475801aed065e454c8fa8c3f95aa4866, type: 3}
  m_Name: Store_Category_Furniture
  m_EditorClassIdentifier: 
  CategoryName: Furniture
  Products:
  - {fileID: 11400000, guid: 460f3cb9af4844184b1a1afdc5e04756, type: 2}
  - {fileID: 11400000, guid: 934e93bad3f6c44c486eb2889cc0e53d, type: 2}
  - {fileID: 11400000, guid: b59ebb4d3e8b1430b8a27ea6feeb2fe8, type: 2}
