%YAML 1.1
%TAG !u! tag:unity3d.com,2011:
--- !u!114 &11400000
MonoBehaviour:
  m_ObjectHideFlags: 0
  m_CorrespondingSourceObject: {fileID: 0}
  m_PrefabInstance: {fileID: 0}
  m_PrefabAsset: {fileID: 0}
  m_GameObject: {fileID: 0}
  m_Enabled: 1
  m_EditorHideFlags: 0
  m_Script: {fileID: 11500000, guid: 475801aed065e454c8fa8c3f95aa4866, type: 3}
  m_Name: Store_Category_Grinders
  m_EditorClassIdentifier: 
  CategoryName: Grinders
  Products:
  - {fileID: 11400000, guid: 1b4efd589b6594fc18bacb203c30447b, type: 2}
  - {fileID: 11400000, guid: 9dd5b42d1bd6141f6941abcde25a098c, type: 2}
  CoffeeMarketStore: {fileID: 0}
