%YAML 1.1
%TAG !u! tag:unity3d.com,2011:
--- !u!114 &11400000
MonoBehaviour:
  m_ObjectHideFlags: 0
  m_CorrespondingSourceObject: {fileID: 0}
  m_PrefabInstance: {fileID: 0}
  m_PrefabAsset: {fileID: 0}
  m_GameObject: {fileID: 0}
  m_Enabled: 1
  m_EditorHideFlags: 0
  m_Script: {fileID: 11500000, guid: d805ff4963be1ac4ea22eea9224a656f, type: 3}
  m_Name: Hair_6
  m_EditorClassIdentifier: 
  <SkinName>k__BackingField: Ginger
  <MaterialsPerRenderer>k__BackingField:
  - Materials:
    - {fileID: 2100000, guid: 1f46e0e207bb625419755910e73978b7, type: 2}
  <Price>k__BackingField: 0
  <Thumbnail>k__BackingField: {fileID: 0}
  <InitiallyPurchased>k__BackingField: 1
  <InitiallyVisible>k__BackingField: 1
