%YAML 1.1
%TAG !u! tag:unity3d.com,2011:
--- !u!1001 &1509252414870789878
PrefabInstance:
  m_ObjectHideFlags: 0
  serializedVersion: 2
  m_Modification:
    serializedVersion: 3
    m_TransformParent: {fileID: 0}
    m_Modifications:
    - target: {fileID: 2736480583929587775, guid: 7c14fbeeda8624f418d8bb5ee2b74b30,
        type: 3}
      propertyPath: m_Name
      value: ===LIGHTING=== Variant HOME
      objectReference: {fileID: 0}
    - target: {fileID: 4859139422081448089, guid: 7c14fbeeda8624f418d8bb5ee2b74b30,
        type: 3}
      propertyPath: m_LocalPosition.x
      value: 0
      objectReference: {fileID: 0}
    - target: {fileID: 4859139422081448089, guid: 7c14fbeeda8624f418d8bb5ee2b74b30,
        type: 3}
      propertyPath: m_LocalPosition.y
      value: 0
      objectReference: {fileID: 0}
    - target: {fileID: 4859139422081448089, guid: 7c14fbeeda8624f418d8bb5ee2b74b30,
        type: 3}
      propertyPath: m_LocalPosition.z
      value: 0
      objectReference: {fileID: 0}
    - target: {fileID: 4859139422081448089, guid: 7c14fbeeda8624f418d8bb5ee2b74b30,
        type: 3}
      propertyPath: m_LocalRotation.w
      value: 1
      objectReference: {fileID: 0}
    - target: {fileID: 4859139422081448089, guid: 7c14fbeeda8624f418d8bb5ee2b74b30,
        type: 3}
      propertyPath: m_LocalRotation.x
      value: 0
      objectReference: {fileID: 0}
    - target: {fileID: 4859139422081448089, guid: 7c14fbeeda8624f418d8bb5ee2b74b30,
        type: 3}
      propertyPath: m_LocalRotation.y
      value: 0
      objectReference: {fileID: 0}
    - target: {fileID: 4859139422081448089, guid: 7c14fbeeda8624f418d8bb5ee2b74b30,
        type: 3}
      propertyPath: m_LocalRotation.z
      value: 0
      objectReference: {fileID: 0}
    - target: {fileID: 4859139422081448089, guid: 7c14fbeeda8624f418d8bb5ee2b74b30,
        type: 3}
      propertyPath: m_LocalEulerAnglesHint.x
      value: 0
      objectReference: {fileID: 0}
    - target: {fileID: 4859139422081448089, guid: 7c14fbeeda8624f418d8bb5ee2b74b30,
        type: 3}
      propertyPath: m_LocalEulerAnglesHint.y
      value: 0
      objectReference: {fileID: 0}
    - target: {fileID: 4859139422081448089, guid: 7c14fbeeda8624f418d8bb5ee2b74b30,
        type: 3}
      propertyPath: m_LocalEulerAnglesHint.z
      value: 0
      objectReference: {fileID: 0}
    m_RemovedComponents: []
    m_RemovedGameObjects: []
    m_AddedGameObjects: []
    m_AddedComponents:
    - targetCorrespondingSourceObject: {fileID: 6135350407392923579, guid: 7c14fbeeda8624f418d8bb5ee2b74b30,
        type: 3}
      insertIndex: -1
      addedObject: {fileID: 1239812970631652269}
  m_SourcePrefab: {fileID: 100100000, guid: 7c14fbeeda8624f418d8bb5ee2b74b30, type: 3}
--- !u!1 &4743651205026287949 stripped
GameObject:
  m_CorrespondingSourceObject: {fileID: 6135350407392923579, guid: 7c14fbeeda8624f418d8bb5ee2b74b30,
    type: 3}
  m_PrefabInstance: {fileID: 1509252414870789878}
  m_PrefabAsset: {fileID: 0}
--- !u!114 &1239812970631652269
MonoBehaviour:
  m_ObjectHideFlags: 0
  m_CorrespondingSourceObject: {fileID: 0}
  m_PrefabInstance: {fileID: 0}
  m_PrefabAsset: {fileID: 0}
  m_GameObject: {fileID: 4743651205026287949}
  m_Enabled: 1
  m_EditorHideFlags: 0
  m_Script: {fileID: 11500000, guid: a579faa386922c94eb3dbbb6e3de832d, type: 3}
  m_Name: 
  m_EditorClassIdentifier: 
  _lightingController: {fileID: 9001328593630800407}
--- !u!114 &9001328593630800407 stripped
MonoBehaviour:
  m_CorrespondingSourceObject: {fileID: 7501543119904060641, guid: 7c14fbeeda8624f418d8bb5ee2b74b30,
    type: 3}
  m_PrefabInstance: {fileID: 1509252414870789878}
  m_PrefabAsset: {fileID: 0}
  m_GameObject: {fileID: 4743651205026287949}
  m_Enabled: 1
  m_EditorHideFlags: 0
  m_Script: {fileID: 11500000, guid: 695996652b84e5946aa102d8b64d2dda, type: 3}
  m_Name: 
  m_EditorClassIdentifier: 
