%YAML 1.1
%TAG !u! tag:unity3d.com,2011:
--- !u!114 &11400000
MonoBehaviour:
  m_ObjectHideFlags: 0
  m_CorrespondingSourceObject: {fileID: 0}
  m_PrefabInstance: {fileID: 0}
  m_PrefabAsset: {fileID: 0}
  m_GameObject: {fileID: 0}
  m_Enabled: 1
  m_EditorHideFlags: 0
  m_Script: {fileID: 11500000, guid: d805ff4963be1ac4ea22eea9224a656f, type: 3}
  m_Name: Eye_Green
  m_EditorClassIdentifier: 
  <SkinName>k__BackingField: Green
  <MaterialsPerRenderer>k__BackingField:
  - Materials:
    - {fileID: 0}
    - {fileID: 2100000, guid: 8e6ab7e65e7e0a146acb422cb61587eb, type: 2}
  <Price>k__BackingField: 0
  <Thumbnail>k__BackingField: {fileID: 0}
  <InitiallyPurchased>k__BackingField: 1
  <InitiallyVisible>k__BackingField: 1
