%YAML 1.1
%TAG !u! tag:unity3d.com,2011:
--- !u!1001 &5186946902678442751
PrefabInstance:
  m_ObjectHideFlags: 0
  serializedVersion: 2
  m_Modification:
    serializedVersion: 3
    m_TransformParent: {fileID: 0}
    m_Modifications:
    - target: {fileID: -6369643708275650568, guid: 488e19843eed2214eadfa5da9c52bbb2,
        type: 3}
      propertyPath: m_PreferredWidth
      value: 50
      objectReference: {fileID: 0}
    - target: {fileID: -6369643708275650568, guid: 488e19843eed2214eadfa5da9c52bbb2,
        type: 3}
      propertyPath: m_PreferredHeight
      value: 50
      objectReference: {fileID: 0}
    - target: {fileID: 1438117409049367974, guid: 488e19843eed2214eadfa5da9c52bbb2,
        type: 3}
      propertyPath: m_Name
      value: ObjectState_Base_Variant_Brewing
      objectReference: {fileID: 0}
    - target: {fileID: 1585064205059308054, guid: 488e19843eed2214eadfa5da9c52bbb2,
        type: 3}
      propertyPath: m_AnchoredPosition.x
      value: 0
      objectReference: {fileID: 0}
    - target: {fileID: 1585064205059308054, guid: 488e19843eed2214eadfa5da9c52bbb2,
        type: 3}
      propertyPath: m_AnchoredPosition.y
      value: -0.00030517578
      objectReference: {fileID: 0}
    - target: {fileID: 5065924359771737735, guid: 488e19843eed2214eadfa5da9c52bbb2,
        type: 3}
      propertyPath: m_AnchorMax.x
      value: 0.86
      objectReference: {fileID: 0}
    - target: {fileID: 5065924359771737735, guid: 488e19843eed2214eadfa5da9c52bbb2,
        type: 3}
      propertyPath: m_AnchorMax.y
      value: 0.86
      objectReference: {fileID: 0}
    - target: {fileID: 5065924359771737735, guid: 488e19843eed2214eadfa5da9c52bbb2,
        type: 3}
      propertyPath: m_AnchorMin.x
      value: 0.14
      objectReference: {fileID: 0}
    - target: {fileID: 5065924359771737735, guid: 488e19843eed2214eadfa5da9c52bbb2,
        type: 3}
      propertyPath: m_AnchorMin.y
      value: 0.15
      objectReference: {fileID: 0}
    - target: {fileID: 5065924359771737735, guid: 488e19843eed2214eadfa5da9c52bbb2,
        type: 3}
      propertyPath: m_SizeDelta.x
      value: -0.18430042
      objectReference: {fileID: 0}
    - target: {fileID: 5065924359771737735, guid: 488e19843eed2214eadfa5da9c52bbb2,
        type: 3}
      propertyPath: m_SizeDelta.y
      value: -0.18430042
      objectReference: {fileID: 0}
    - target: {fileID: 5065924359771737735, guid: 488e19843eed2214eadfa5da9c52bbb2,
        type: 3}
      propertyPath: m_LocalPosition.z
      value: 0
      objectReference: {fileID: 0}
    - target: {fileID: 5065924359771737735, guid: 488e19843eed2214eadfa5da9c52bbb2,
        type: 3}
      propertyPath: m_AnchoredPosition.x
      value: 0
      objectReference: {fileID: 0}
    - target: {fileID: 5065924359771737735, guid: 488e19843eed2214eadfa5da9c52bbb2,
        type: 3}
      propertyPath: m_AnchoredPosition.y
      value: 0
      objectReference: {fileID: 0}
    - target: {fileID: 5853043204515196166, guid: 488e19843eed2214eadfa5da9c52bbb2,
        type: 3}
      propertyPath: m_Type
      value: 3
      objectReference: {fileID: 0}
    - target: {fileID: 5853043204515196166, guid: 488e19843eed2214eadfa5da9c52bbb2,
        type: 3}
      propertyPath: m_Sprite
      value: 
      objectReference: {fileID: 21300000, guid: 89db573a744d0d244b0295fcfeffe015,
        type: 3}
    - target: {fileID: 5853043204515196166, guid: 488e19843eed2214eadfa5da9c52bbb2,
        type: 3}
      propertyPath: m_Color.b
      value: 0.33333334
      objectReference: {fileID: 0}
    - target: {fileID: 5853043204515196166, guid: 488e19843eed2214eadfa5da9c52bbb2,
        type: 3}
      propertyPath: m_Color.g
      value: 0.43921572
      objectReference: {fileID: 0}
    - target: {fileID: 5853043204515196166, guid: 488e19843eed2214eadfa5da9c52bbb2,
        type: 3}
      propertyPath: m_Color.r
      value: 0.6509804
      objectReference: {fileID: 0}
    - target: {fileID: 5853043204515196166, guid: 488e19843eed2214eadfa5da9c52bbb2,
        type: 3}
      propertyPath: m_FillAmount
      value: 0.652
      objectReference: {fileID: 0}
    - target: {fileID: 7007855628010786340, guid: 488e19843eed2214eadfa5da9c52bbb2,
        type: 3}
      propertyPath: m_Type
      value: 0
      objectReference: {fileID: 0}
    - target: {fileID: 7007855628010786340, guid: 488e19843eed2214eadfa5da9c52bbb2,
        type: 3}
      propertyPath: m_Sprite
      value: 
      objectReference: {fileID: 21300000, guid: 89db573a744d0d244b0295fcfeffe015,
        type: 3}
    - target: {fileID: 7090763892683132568, guid: 488e19843eed2214eadfa5da9c52bbb2,
        type: 3}
      propertyPath: _fillingCircle
      value: 
      objectReference: {fileID: 1639753854336794617}
    - target: {fileID: 7258200872705275991, guid: 488e19843eed2214eadfa5da9c52bbb2,
        type: 3}
      propertyPath: m_Pivot.x
      value: 0.5
      objectReference: {fileID: 0}
    - target: {fileID: 7258200872705275991, guid: 488e19843eed2214eadfa5da9c52bbb2,
        type: 3}
      propertyPath: m_Pivot.y
      value: 0.5
      objectReference: {fileID: 0}
    - target: {fileID: 7258200872705275991, guid: 488e19843eed2214eadfa5da9c52bbb2,
        type: 3}
      propertyPath: m_RootOrder
      value: -1
      objectReference: {fileID: 0}
    - target: {fileID: 7258200872705275991, guid: 488e19843eed2214eadfa5da9c52bbb2,
        type: 3}
      propertyPath: m_AnchorMax.x
      value: 0
      objectReference: {fileID: 0}
    - target: {fileID: 7258200872705275991, guid: 488e19843eed2214eadfa5da9c52bbb2,
        type: 3}
      propertyPath: m_AnchorMax.y
      value: 0
      objectReference: {fileID: 0}
    - target: {fileID: 7258200872705275991, guid: 488e19843eed2214eadfa5da9c52bbb2,
        type: 3}
      propertyPath: m_AnchorMin.x
      value: 0
      objectReference: {fileID: 0}
    - target: {fileID: 7258200872705275991, guid: 488e19843eed2214eadfa5da9c52bbb2,
        type: 3}
      propertyPath: m_AnchorMin.y
      value: 0
      objectReference: {fileID: 0}
    - target: {fileID: 7258200872705275991, guid: 488e19843eed2214eadfa5da9c52bbb2,
        type: 3}
      propertyPath: m_SizeDelta.x
      value: 50
      objectReference: {fileID: 0}
    - target: {fileID: 7258200872705275991, guid: 488e19843eed2214eadfa5da9c52bbb2,
        type: 3}
      propertyPath: m_SizeDelta.y
      value: 50
      objectReference: {fileID: 0}
    - target: {fileID: 7258200872705275991, guid: 488e19843eed2214eadfa5da9c52bbb2,
        type: 3}
      propertyPath: m_LocalPosition.x
      value: 0
      objectReference: {fileID: 0}
    - target: {fileID: 7258200872705275991, guid: 488e19843eed2214eadfa5da9c52bbb2,
        type: 3}
      propertyPath: m_LocalPosition.y
      value: 0
      objectReference: {fileID: 0}
    - target: {fileID: 7258200872705275991, guid: 488e19843eed2214eadfa5da9c52bbb2,
        type: 3}
      propertyPath: m_LocalPosition.z
      value: 0
      objectReference: {fileID: 0}
    - target: {fileID: 7258200872705275991, guid: 488e19843eed2214eadfa5da9c52bbb2,
        type: 3}
      propertyPath: m_LocalRotation.w
      value: 1
      objectReference: {fileID: 0}
    - target: {fileID: 7258200872705275991, guid: 488e19843eed2214eadfa5da9c52bbb2,
        type: 3}
      propertyPath: m_LocalRotation.x
      value: -3.3881318e-21
      objectReference: {fileID: 0}
    - target: {fileID: 7258200872705275991, guid: 488e19843eed2214eadfa5da9c52bbb2,
        type: 3}
      propertyPath: m_LocalRotation.y
      value: -0
      objectReference: {fileID: 0}
    - target: {fileID: 7258200872705275991, guid: 488e19843eed2214eadfa5da9c52bbb2,
        type: 3}
      propertyPath: m_LocalRotation.z
      value: -0
      objectReference: {fileID: 0}
    - target: {fileID: 7258200872705275991, guid: 488e19843eed2214eadfa5da9c52bbb2,
        type: 3}
      propertyPath: m_AnchoredPosition.x
      value: 0
      objectReference: {fileID: 0}
    - target: {fileID: 7258200872705275991, guid: 488e19843eed2214eadfa5da9c52bbb2,
        type: 3}
      propertyPath: m_AnchoredPosition.y
      value: 0
      objectReference: {fileID: 0}
    - target: {fileID: 7258200872705275991, guid: 488e19843eed2214eadfa5da9c52bbb2,
        type: 3}
      propertyPath: m_LocalEulerAnglesHint.x
      value: 0
      objectReference: {fileID: 0}
    - target: {fileID: 7258200872705275991, guid: 488e19843eed2214eadfa5da9c52bbb2,
        type: 3}
      propertyPath: m_LocalEulerAnglesHint.y
      value: 0
      objectReference: {fileID: 0}
    - target: {fileID: 7258200872705275991, guid: 488e19843eed2214eadfa5da9c52bbb2,
        type: 3}
      propertyPath: m_LocalEulerAnglesHint.z
      value: 0
      objectReference: {fileID: 0}
    m_RemovedComponents: []
    m_RemovedGameObjects: []
    m_AddedGameObjects: []
    m_AddedComponents: []
  m_SourcePrefab: {fileID: 100100000, guid: 488e19843eed2214eadfa5da9c52bbb2, type: 3}
--- !u!114 &1639753854336794617 stripped
MonoBehaviour:
  m_CorrespondingSourceObject: {fileID: 5853043204515196166, guid: 488e19843eed2214eadfa5da9c52bbb2,
    type: 3}
  m_PrefabInstance: {fileID: 5186946902678442751}
  m_PrefabAsset: {fileID: 0}
  m_GameObject: {fileID: 0}
  m_Enabled: 1
  m_EditorHideFlags: 0
  m_Script: {fileID: 11500000, guid: fe87c0e1cc204ed48ad3b37840f39efc, type: 3}
  m_Name: 
  m_EditorClassIdentifier: 
