%YAML 1.1
%TAG !u! tag:unity3d.com,2011:
--- !u!1 &578437102344514917
GameObject:
  m_ObjectHideFlags: 0
  m_CorrespondingSourceObject: {fileID: 0}
  m_PrefabInstance: {fileID: 0}
  m_PrefabAsset: {fileID: 0}
  serializedVersion: 6
  m_Component:
  - component: {fileID: 6577915727428025574}
  - component: {fileID: 527365019410848698}
  - component: {fileID: 8698386397335161323}
  m_Layer: 5
  m_Name: bar
  m_TagString: Untagged
  m_Icon: {fileID: 0}
  m_NavMeshLayer: 0
  m_StaticEditorFlags: 0
  m_IsActive: 1
--- !u!224 &6577915727428025574
RectTransform:
  m_ObjectHideFlags: 0
  m_CorrespondingSourceObject: {fileID: 0}
  m_PrefabInstance: {fileID: 0}
  m_PrefabAsset: {fileID: 0}
  m_GameObject: {fileID: 578437102344514917}
  m_LocalRotation: {x: -0, y: -0, z: -0, w: 1}
  m_LocalPosition: {x: 0, y: 0, z: -0}
  m_LocalScale: {x: 1, y: 1, z: 1}
  m_ConstrainProportionsScale: 0
  m_Children: []
  m_Father: {fileID: 8166902411651339751}
  m_LocalEulerAnglesHint: {x: 0, y: 0, z: 0}
  m_AnchorMin: {x: 0.080000006, y: 0.09}
  m_AnchorMax: {x: 0.92, y: 0.92}
  m_AnchoredPosition: {x: -0.00024414062, y: -0.00030517578}
  m_SizeDelta: {x: -0.5379, y: -0.5379}
  m_Pivot: {x: 0.5, y: 0.5}
--- !u!222 &527365019410848698
CanvasRenderer:
  m_ObjectHideFlags: 0
  m_CorrespondingSourceObject: {fileID: 0}
  m_PrefabInstance: {fileID: 0}
  m_PrefabAsset: {fileID: 0}
  m_GameObject: {fileID: 578437102344514917}
  m_CullTransparentMesh: 1
--- !u!114 &8698386397335161323
MonoBehaviour:
  m_ObjectHideFlags: 0
  m_CorrespondingSourceObject: {fileID: 0}
  m_PrefabInstance: {fileID: 0}
  m_PrefabAsset: {fileID: 0}
  m_GameObject: {fileID: 578437102344514917}
  m_Enabled: 1
  m_EditorHideFlags: 0
  m_Script: {fileID: 11500000, guid: fe87c0e1cc204ed48ad3b37840f39efc, type: 3}
  m_Name: 
  m_EditorClassIdentifier: 
  m_Material: {fileID: 0}
  m_Color: {r: 0.9843137, g: 0.2901961, b: 0.2901961, a: 1}
  m_RaycastTarget: 1
  m_RaycastPadding: {x: 0, y: 0, z: 0, w: 0}
  m_Maskable: 1
  m_OnCullStateChanged:
    m_PersistentCalls:
      m_Calls: []
  m_Sprite: {fileID: 1077248185, guid: b0918c6d6e5404d6cac1b45a387d3dfc, type: 3}
  m_Type: 0
  m_PreserveAspect: 1
  m_FillCenter: 1
  m_FillMethod: 4
  m_FillAmount: 1
  m_FillClockwise: 1
  m_FillOrigin: 0
  m_UseSpriteMesh: 0
  m_PixelsPerUnitMultiplier: 1
--- !u!1001 &1579889657569963440
PrefabInstance:
  m_ObjectHideFlags: 0
  serializedVersion: 2
  m_Modification:
    serializedVersion: 3
    m_TransformParent: {fileID: 0}
    m_Modifications:
    - target: {fileID: -6369643708275650568, guid: 488e19843eed2214eadfa5da9c52bbb2,
        type: 3}
      propertyPath: m_PreferredWidth
      value: 50
      objectReference: {fileID: 0}
    - target: {fileID: -6369643708275650568, guid: 488e19843eed2214eadfa5da9c52bbb2,
        type: 3}
      propertyPath: m_PreferredHeight
      value: 50
      objectReference: {fileID: 0}
    - target: {fileID: 1438117409049367974, guid: 488e19843eed2214eadfa5da9c52bbb2,
        type: 3}
      propertyPath: m_Name
      value: ObjectState_Base_Variant_OutCoffee
      objectReference: {fileID: 0}
    - target: {fileID: 1585064205059308054, guid: 488e19843eed2214eadfa5da9c52bbb2,
        type: 3}
      propertyPath: m_AnchoredPosition.y
      value: -0.00030517578
      objectReference: {fileID: 0}
    - target: {fileID: 5065924359771737735, guid: 488e19843eed2214eadfa5da9c52bbb2,
        type: 3}
      propertyPath: m_AnchorMax.x
      value: 0.86
      objectReference: {fileID: 0}
    - target: {fileID: 5065924359771737735, guid: 488e19843eed2214eadfa5da9c52bbb2,
        type: 3}
      propertyPath: m_AnchorMax.y
      value: 0.86
      objectReference: {fileID: 0}
    - target: {fileID: 5065924359771737735, guid: 488e19843eed2214eadfa5da9c52bbb2,
        type: 3}
      propertyPath: m_AnchorMin.x
      value: 0.14
      objectReference: {fileID: 0}
    - target: {fileID: 5065924359771737735, guid: 488e19843eed2214eadfa5da9c52bbb2,
        type: 3}
      propertyPath: m_AnchorMin.y
      value: 0.17
      objectReference: {fileID: 0}
    - target: {fileID: 5065924359771737735, guid: 488e19843eed2214eadfa5da9c52bbb2,
        type: 3}
      propertyPath: m_SizeDelta.x
      value: -0.4801998
      objectReference: {fileID: 0}
    - target: {fileID: 5065924359771737735, guid: 488e19843eed2214eadfa5da9c52bbb2,
        type: 3}
      propertyPath: m_SizeDelta.y
      value: -0.26819992
      objectReference: {fileID: 0}
    - target: {fileID: 5065924359771737735, guid: 488e19843eed2214eadfa5da9c52bbb2,
        type: 3}
      propertyPath: m_LocalPosition.z
      value: 0
      objectReference: {fileID: 0}
    - target: {fileID: 5065924359771737735, guid: 488e19843eed2214eadfa5da9c52bbb2,
        type: 3}
      propertyPath: m_AnchoredPosition.x
      value: 0
      objectReference: {fileID: 0}
    - target: {fileID: 5065924359771737735, guid: 488e19843eed2214eadfa5da9c52bbb2,
        type: 3}
      propertyPath: m_AnchoredPosition.y
      value: 0
      objectReference: {fileID: 0}
    - target: {fileID: 5853043204515196166, guid: 488e19843eed2214eadfa5da9c52bbb2,
        type: 3}
      propertyPath: m_Sprite
      value: 
      objectReference: {fileID: -1243891661, guid: b0918c6d6e5404d6cac1b45a387d3dfc,
        type: 3}
    - target: {fileID: 5853043204515196166, guid: 488e19843eed2214eadfa5da9c52bbb2,
        type: 3}
      propertyPath: m_Color.b
      value: 0.14840691
      objectReference: {fileID: 0}
    - target: {fileID: 5853043204515196166, guid: 488e19843eed2214eadfa5da9c52bbb2,
        type: 3}
      propertyPath: m_Color.g
      value: 0.20300712
      objectReference: {fileID: 0}
    - target: {fileID: 5853043204515196166, guid: 488e19843eed2214eadfa5da9c52bbb2,
        type: 3}
      propertyPath: m_Color.r
      value: 0.2735849
      objectReference: {fileID: 0}
    - target: {fileID: 7007855628010786340, guid: 488e19843eed2214eadfa5da9c52bbb2,
        type: 3}
      propertyPath: m_Sprite
      value: 
      objectReference: {fileID: 1095888205, guid: b0918c6d6e5404d6cac1b45a387d3dfc,
        type: 3}
    - target: {fileID: 7007855628010786340, guid: 488e19843eed2214eadfa5da9c52bbb2,
        type: 3}
      propertyPath: m_Color.b
      value: 0.2901961
      objectReference: {fileID: 0}
    - target: {fileID: 7007855628010786340, guid: 488e19843eed2214eadfa5da9c52bbb2,
        type: 3}
      propertyPath: m_Color.g
      value: 0.2901961
      objectReference: {fileID: 0}
    - target: {fileID: 7007855628010786340, guid: 488e19843eed2214eadfa5da9c52bbb2,
        type: 3}
      propertyPath: m_Color.r
      value: 0.9843137
      objectReference: {fileID: 0}
    - target: {fileID: 7258200872705275991, guid: 488e19843eed2214eadfa5da9c52bbb2,
        type: 3}
      propertyPath: m_Pivot.x
      value: 0.5
      objectReference: {fileID: 0}
    - target: {fileID: 7258200872705275991, guid: 488e19843eed2214eadfa5da9c52bbb2,
        type: 3}
      propertyPath: m_Pivot.y
      value: 0.5
      objectReference: {fileID: 0}
    - target: {fileID: 7258200872705275991, guid: 488e19843eed2214eadfa5da9c52bbb2,
        type: 3}
      propertyPath: m_RootOrder
      value: -1
      objectReference: {fileID: 0}
    - target: {fileID: 7258200872705275991, guid: 488e19843eed2214eadfa5da9c52bbb2,
        type: 3}
      propertyPath: m_AnchorMax.x
      value: 0
      objectReference: {fileID: 0}
    - target: {fileID: 7258200872705275991, guid: 488e19843eed2214eadfa5da9c52bbb2,
        type: 3}
      propertyPath: m_AnchorMax.y
      value: 0
      objectReference: {fileID: 0}
    - target: {fileID: 7258200872705275991, guid: 488e19843eed2214eadfa5da9c52bbb2,
        type: 3}
      propertyPath: m_AnchorMin.x
      value: 0
      objectReference: {fileID: 0}
    - target: {fileID: 7258200872705275991, guid: 488e19843eed2214eadfa5da9c52bbb2,
        type: 3}
      propertyPath: m_AnchorMin.y
      value: 0
      objectReference: {fileID: 0}
    - target: {fileID: 7258200872705275991, guid: 488e19843eed2214eadfa5da9c52bbb2,
        type: 3}
      propertyPath: m_SizeDelta.x
      value: 50
      objectReference: {fileID: 0}
    - target: {fileID: 7258200872705275991, guid: 488e19843eed2214eadfa5da9c52bbb2,
        type: 3}
      propertyPath: m_SizeDelta.y
      value: 50
      objectReference: {fileID: 0}
    - target: {fileID: 7258200872705275991, guid: 488e19843eed2214eadfa5da9c52bbb2,
        type: 3}
      propertyPath: m_LocalPosition.x
      value: 0
      objectReference: {fileID: 0}
    - target: {fileID: 7258200872705275991, guid: 488e19843eed2214eadfa5da9c52bbb2,
        type: 3}
      propertyPath: m_LocalPosition.y
      value: 0
      objectReference: {fileID: 0}
    - target: {fileID: 7258200872705275991, guid: 488e19843eed2214eadfa5da9c52bbb2,
        type: 3}
      propertyPath: m_LocalPosition.z
      value: 0
      objectReference: {fileID: 0}
    - target: {fileID: 7258200872705275991, guid: 488e19843eed2214eadfa5da9c52bbb2,
        type: 3}
      propertyPath: m_LocalRotation.w
      value: 1
      objectReference: {fileID: 0}
    - target: {fileID: 7258200872705275991, guid: 488e19843eed2214eadfa5da9c52bbb2,
        type: 3}
      propertyPath: m_LocalRotation.x
      value: -3.3881318e-21
      objectReference: {fileID: 0}
    - target: {fileID: 7258200872705275991, guid: 488e19843eed2214eadfa5da9c52bbb2,
        type: 3}
      propertyPath: m_LocalRotation.y
      value: -0
      objectReference: {fileID: 0}
    - target: {fileID: 7258200872705275991, guid: 488e19843eed2214eadfa5da9c52bbb2,
        type: 3}
      propertyPath: m_LocalRotation.z
      value: -0
      objectReference: {fileID: 0}
    - target: {fileID: 7258200872705275991, guid: 488e19843eed2214eadfa5da9c52bbb2,
        type: 3}
      propertyPath: m_AnchoredPosition.x
      value: 0
      objectReference: {fileID: 0}
    - target: {fileID: 7258200872705275991, guid: 488e19843eed2214eadfa5da9c52bbb2,
        type: 3}
      propertyPath: m_AnchoredPosition.y
      value: 0
      objectReference: {fileID: 0}
    - target: {fileID: 7258200872705275991, guid: 488e19843eed2214eadfa5da9c52bbb2,
        type: 3}
      propertyPath: m_LocalEulerAnglesHint.x
      value: 0
      objectReference: {fileID: 0}
    - target: {fileID: 7258200872705275991, guid: 488e19843eed2214eadfa5da9c52bbb2,
        type: 3}
      propertyPath: m_LocalEulerAnglesHint.y
      value: 0
      objectReference: {fileID: 0}
    - target: {fileID: 7258200872705275991, guid: 488e19843eed2214eadfa5da9c52bbb2,
        type: 3}
      propertyPath: m_LocalEulerAnglesHint.z
      value: 0
      objectReference: {fileID: 0}
    m_RemovedComponents: []
    m_RemovedGameObjects: []
    m_AddedGameObjects:
    - targetCorrespondingSourceObject: {fileID: 7258200872705275991, guid: 488e19843eed2214eadfa5da9c52bbb2,
        type: 3}
      insertIndex: -1
      addedObject: {fileID: 6577915727428025574}
    m_AddedComponents: []
  m_SourcePrefab: {fileID: 100100000, guid: 488e19843eed2214eadfa5da9c52bbb2, type: 3}
--- !u!224 &8166902411651339751 stripped
RectTransform:
  m_CorrespondingSourceObject: {fileID: 7258200872705275991, guid: 488e19843eed2214eadfa5da9c52bbb2,
    type: 3}
  m_PrefabInstance: {fileID: 1579889657569963440}
  m_PrefabAsset: {fileID: 0}
