%YAML 1.1
%TAG !u! tag:unity3d.com,2011:
--- !u!114 &11400000
MonoBehaviour:
  m_ObjectHideFlags: 0
  m_CorrespondingSourceObject: {fileID: 0}
  m_PrefabInstance: {fileID: 0}
  m_PrefabAsset: {fileID: 0}
  m_GameObject: {fileID: 0}
  m_Enabled: 1
  m_EditorHideFlags: 0
  m_Script: {fileID: 11500000, guid: 3b0b4cf9f399f96489733f71d36d6c19, type: 3}
  m_Name: Bolivia_B
  m_EditorClassIdentifier: 
  <CoffeeOrigin>k__BackingField: {fileID: 11400000, guid: 26348007ee1f3504481a63fce2ead0ac,
    type: 2}
  <PossibleCoffeeQualityConfigs>k__BackingField:
  - {fileID: 11400000, guid: 5384a38a33fbc9541877bc5ae54ad699, type: 2}
  - {fileID: 11400000, guid: 4e6cd199d901c5e47bec775440313a5e, type: 2}
  <PossibleFlavourNotes>k__BackingField:
    PossibleLightRoastNotes: 0700000010000000110000000b000000
    PossibleMediumRoastNotes: 030000000c000000
    PossibleDarkRoastNotes: 09000000020000000a000000
