%YAML 1.1
%TAG !u! tag:unity3d.com,2011:
--- !u!114 &11400000
MonoBehaviour:
  m_ObjectHideFlags: 0
  m_CorrespondingSourceObject: {fileID: 0}
  m_PrefabInstance: {fileID: 0}
  m_PrefabAsset: {fileID: 0}
  m_GameObject: {fileID: 0}
  m_Enabled: 1
  m_EditorHideFlags: 0
  m_Script: {fileID: 11500000, guid: ae1985de04b8c114b92a32c965aeb4ee, type: 3}
  m_Name: DEMO_GameConfigData
  m_EditorClassIdentifier: 
  AI:
    BaseWaitTime: 30
    ConsiderMinMaxWaitTime: {x: 5, y: 10}
    ModerateWaitRatio: 0.4
    ImminentWaitRatio: 0.25
    MinMaxNPCSpeed: {x: 1.8, y: 2.2}
    ConsiderInsideChanceVersusOutside: 50
    <CustomersConfigs>k__BackingField:
      MaxCustomersVisiting: 1
      CustomerSpawnDelayMinMax: {x: 2, y: 7}
      MaxAllocatedCustomersInWorld: 15
    <ExpectationsTraitsList>k__BackingField: {fileID: 11400000, guid: 6b0d6cd089be27747abe0f18c158d221,
      type: 2}
    <ExpectationsConfig>k__BackingField: {fileID: 11400000, guid: bd79299e286608246a748362fe25d55d,
      type: 2}
    <TraitConfig>k__BackingField: {fileID: 11400000, guid: b873b7ab920266047971bbaf280eef01,
      type: 2}
    <ChooseDrinkConfig>k__BackingField: {fileID: 11400000, guid: 63ac818ecf92ccd41b4dc60c8344c134,
      type: 2}
    <TastingNotesToChooseFromConfig>k__BackingField: {fileID: 11400000, guid: fe64b6854c539b94880ef3ffaedeeb44,
      type: 2}
    <ConsiderVisitConfig>k__BackingField: {fileID: 11400000, guid: 63829c75df0b240d5ac02ca4ddc99650,
      type: 2}
    <IntentionsConfig>k__BackingField: {fileID: 11400000, guid: efe9c920d7d95944496c68454aa07ab3,
      type: 2}
    <FeedbackEntryTypeConfig>k__BackingField: {fileID: 11400000, guid: e61119ab531eb5a47a7f6efba29f0021,
      type: 2}
  Gameplay:
    <DrinkPrice>k__BackingField: 20
    <GameplayStateDictionary>k__BackingField:
      m_keys: 0000000001000000020000000300000005000000
      m_values: ffffffffffffffffffffffffffffffffffffffff
    <DayLength>k__BackingField: 300
    <DialingInEnabled>k__BackingField: 1
    <XPSystemConfig>k__BackingField: {fileID: 11400000, guid: 32d31c4e0054f2d4eb9beca907dbaa21,
      type: 2}
    <AllRecipes>k__BackingField: {fileID: 11400000, guid: 98ee09a93dcf3e5469b84247189e8682,
      type: 2}
    <RecipesOnMenu>k__BackingField: {fileID: 11400000, guid: 0aa39d4de64d27049ba79e8f68b7f73b,
      type: 2}
    <OverrideCafeGridSerialization>k__BackingField: 0
    <CafeGridSaveFile>k__BackingField: 
    <CafeWorldSaveFile>k__BackingField: 
    <PickableActionsConfig>k__BackingField: {fileID: 11400000, guid: 03576b71cf0e93245ac684085c93a660,
      type: 2}
    <MovableActionsConfig>k__BackingField: {fileID: 11400000, guid: 0837caa4cd2d79e4eae3d3bd5b242c63,
      type: 2}
    <PowerableActionsConfig>k__BackingField: {fileID: 11400000, guid: 957f8bdbeef37ac49afd75ec8ca947c0,
      type: 2}
  Progresion: {fileID: 11400000, guid: 633f4b83cab9a0e4984c5b63ec672404, type: 2}
  DebugConfig: {fileID: 11400000, guid: 010fc081bee2b004e8ba1c8be6817730, type: 2}
