%YAML 1.1
%TAG !u! tag:unity3d.com,2011:
--- !u!114 &11400000
MonoBehaviour:
  m_ObjectHideFlags: 0
  m_CorrespondingSourceObject: {fileID: 0}
  m_PrefabInstance: {fileID: 0}
  m_PrefabAsset: {fileID: 0}
  m_GameObject: {fileID: 0}
  m_Enabled: 1
  m_EditorHideFlags: 0
  m_Script: {fileID: 11500000, guid: 9e6c1111a23cc4bc2aa3afdf13ee1340, type: 3}
  m_Name: RecipesOnMenu
  m_EditorClassIdentifier: 
  _items:
  - _weight: 1
    _percentage: 20.833334
    _value: {fileID: 11400000, guid: bd01bc6734547a74291f0650d93d41f9, type: 2}
  - _weight: 1
    _percentage: 20.833334
    _value: {fileID: 11400000, guid: b40dfd7dab6a94640aeb07b3bf82a776, type: 2}
  - _weight: 0.3
    _percentage: 6.2500005
    _value: {fileID: 11400000, guid: c5afa2fdee3fad6499c76249cd61b989, type: 2}
  - _weight: 0.2
    _percentage: 4.166667
    _value: {fileID: 11400000, guid: 003a48e373c64cb439514c9f4638c1ab, type: 2}
  - _weight: 0.1
    _percentage: 2.0833335
    _value: {fileID: 11400000, guid: 3ea15eb6fb9e8294587726f0f50b396c, type: 2}
  - _weight: 1
    _percentage: 20.833334
    _value: {fileID: 11400000, guid: e7e3cada55ee8044aa3b42ed3c18ed39, type: 2}
  - _weight: 1
    _percentage: 20.833334
    _value: {fileID: 11400000, guid: ab43c31f47ad4744895727b82248d92d, type: 2}
  - _weight: 0.2
    _percentage: 4.166667
    _value: {fileID: 11400000, guid: 04953a9b630398b4c89d865fcd1a6713, type: 2}
