%YAML 1.1
%TAG !u! tag:unity3d.com,2011:
--- !u!114 &-6031126823758572232
MonoBehaviour:
  m_ObjectHideFlags: 11
  m_CorrespondingSourceObject: {fileID: 0}
  m_PrefabInstance: {fileID: 0}
  m_PrefabAsset: {fileID: 0}
  m_GameObject: {fileID: 0}
  m_Enabled: 1
  m_EditorHideFlags: 0
  m_Script: {fileID: 11500000, guid: d0353a89b1f911e48b9e16bdc9f2e058, type: 3}
  m_Name: 
  m_EditorClassIdentifier: 
  version: 9
--- !u!21 &2100000
Material:
  serializedVersion: 8
  m_ObjectHideFlags: 0
  m_CorrespondingSourceObject: {fileID: 0}
  m_PrefabInstance: {fileID: 0}
  m_PrefabAsset: {fileID: 0}
  m_Name: Variant_Hair_Platinum
  m_Shader: {fileID: 4800000, guid: b834f51b770778c42b8dce34c57a1b90, type: 3}
  m_Parent: {fileID: 2100000, guid: 89a62f94136b6f841aa6b5c95a2948ba, type: 2}
  m_ModifiedSerializedProperties: 2
  m_ValidKeywords: []
  m_InvalidKeywords: []
  m_LightmapFlags: 2
  m_EnableInstancingVariants: 0
  m_DoubleSidedGI: 0
  m_CustomRenderQueue: -1
  stringTagMap: {}
  disabledShaderPasses:
  - MOTIONVECTORS
  m_LockedProperties: 
  m_SavedProperties:
    serializedVersion: 3
    m_TexEnvs: []
    m_Ints: []
    m_Floats:
    - Vector1_5127C35D: 0.186
    - Vector1_983341C2: 0.07
    - Vector1_E030FF4A: 1
    - _FresnelPower: 1.19
    m_Colors:
    - Color_A035A7E2: {r: 1, g: 0.8234779, b: 0.4292453, a: 0}
    - _FresnelColor: {r: 0.8, g: 0.6784463, b: 0.40392157, a: 0}
  m_BuildTextureStacks: []
  m_AllowLocking: 1
