%YAML 1.1
%TAG !u! tag:unity3d.com,2011:
--- !u!1001 &4835171895598898827
PrefabInstance:
  m_ObjectHideFlags: 0
  serializedVersion: 2
  m_Modification:
    serializedVersion: 3
    m_TransformParent: {fileID: 0}
    m_Modifications:
    - target: {fileID: -8679921383154817045, guid: adbab228e34f4a84cbf2609074a7d6df,
        type: 3}
      propertyPath: m_RootOrder
      value: 2
      objectReference: {fileID: 0}
    - target: {fileID: -8679921383154817045, guid: adbab228e34f4a84cbf2609074a7d6df,
        type: 3}
      propertyPath: m_LocalPosition.x
      value: -0.041000046
      objectReference: {fileID: 0}
    - target: {fileID: -8679921383154817045, guid: adbab228e34f4a84cbf2609074a7d6df,
        type: 3}
      propertyPath: m_LocalPosition.y
      value: 2.5590012
      objectReference: {fileID: 0}
    - target: {fileID: -8679921383154817045, guid: adbab228e34f4a84cbf2609074a7d6df,
        type: 3}
      propertyPath: m_LocalPosition.z
      value: 3.2670002
      objectReference: {fileID: 0}
    - target: {fileID: -8679921383154817045, guid: adbab228e34f4a84cbf2609074a7d6df,
        type: 3}
      propertyPath: m_LocalRotation.w
      value: -0.70710576
      objectReference: {fileID: 0}
    - target: {fileID: -8679921383154817045, guid: adbab228e34f4a84cbf2609074a7d6df,
        type: 3}
      propertyPath: m_LocalRotation.x
      value: -0.0000003799796
      objectReference: {fileID: 0}
    - target: {fileID: -8679921383154817045, guid: adbab228e34f4a84cbf2609074a7d6df,
        type: 3}
      propertyPath: m_LocalRotation.y
      value: -0.70710784
      objectReference: {fileID: 0}
    - target: {fileID: -8679921383154817045, guid: adbab228e34f4a84cbf2609074a7d6df,
        type: 3}
      propertyPath: m_LocalRotation.z
      value: -0.0000005066395
      objectReference: {fileID: 0}
    - target: {fileID: -8679921383154817045, guid: adbab228e34f4a84cbf2609074a7d6df,
        type: 3}
      propertyPath: m_LocalEulerAnglesHint.x
      value: 0
      objectReference: {fileID: 0}
    - target: {fileID: -8679921383154817045, guid: adbab228e34f4a84cbf2609074a7d6df,
        type: 3}
      propertyPath: m_LocalEulerAnglesHint.y
      value: 90
      objectReference: {fileID: 0}
    - target: {fileID: -8679921383154817045, guid: adbab228e34f4a84cbf2609074a7d6df,
        type: 3}
      propertyPath: m_LocalEulerAnglesHint.z
      value: -360
      objectReference: {fileID: 0}
    - target: {fileID: -7511558181221131132, guid: adbab228e34f4a84cbf2609074a7d6df,
        type: 3}
      propertyPath: m_ReceiveGI
      value: 2
      objectReference: {fileID: 0}
    - target: {fileID: -7511558181221131132, guid: adbab228e34f4a84cbf2609074a7d6df,
        type: 3}
      propertyPath: 'm_Materials.Array.data[0]'
      value: 
      objectReference: {fileID: 2100000, guid: 18ba856ecb97a4d4f9140cfa5bfe0d49, type: 2}
    - target: {fileID: 919132149155446097, guid: adbab228e34f4a84cbf2609074a7d6df,
        type: 3}
      propertyPath: m_Name
      value: Shelves_box Variant
      objectReference: {fileID: 0}
    - target: {fileID: 919132149155446097, guid: adbab228e34f4a84cbf2609074a7d6df,
        type: 3}
      propertyPath: m_Layer
      value: 11
      objectReference: {fileID: 0}
    - target: {fileID: 919132149155446097, guid: adbab228e34f4a84cbf2609074a7d6df,
        type: 3}
      propertyPath: m_StaticEditorFlags
      value: 1
      objectReference: {fileID: 0}
    m_RemovedComponents: []
    m_RemovedGameObjects: []
    m_AddedGameObjects: []
    m_AddedComponents:
    - targetCorrespondingSourceObject: {fileID: 919132149155446097, guid: adbab228e34f4a84cbf2609074a7d6df,
        type: 3}
      insertIndex: -1
      addedObject: {fileID: 129753291928367134}
    - targetCorrespondingSourceObject: {fileID: 919132149155446097, guid: adbab228e34f4a84cbf2609074a7d6df,
        type: 3}
      insertIndex: -1
      addedObject: {fileID: 7308517965003037841}
  m_SourcePrefab: {fileID: 100100000, guid: adbab228e34f4a84cbf2609074a7d6df, type: 3}
--- !u!1 &5753510054549709786 stripped
GameObject:
  m_CorrespondingSourceObject: {fileID: 919132149155446097, guid: adbab228e34f4a84cbf2609074a7d6df,
    type: 3}
  m_PrefabInstance: {fileID: 4835171895598898827}
  m_PrefabAsset: {fileID: 0}
--- !u!65 &129753291928367134
BoxCollider:
  m_ObjectHideFlags: 0
  m_CorrespondingSourceObject: {fileID: 0}
  m_PrefabInstance: {fileID: 0}
  m_PrefabAsset: {fileID: 0}
  m_GameObject: {fileID: 5753510054549709786}
  m_Material: {fileID: 0}
  m_IncludeLayers:
    serializedVersion: 2
    m_Bits: 0
  m_ExcludeLayers:
    serializedVersion: 2
    m_Bits: 0
  m_LayerOverridePriority: 0
  m_IsTrigger: 0
  m_ProvidesContacts: 0
  m_Enabled: 1
  serializedVersion: 3
  m_Size: {x: 0.8, y: 0.79999995, z: 0.40000007}
  m_Center: {x: 0.00000002980237, y: -8.393654e-15, z: 0.19985603}
--- !u!114 &7308517965003037841
MonoBehaviour:
  m_ObjectHideFlags: 0
  m_CorrespondingSourceObject: {fileID: 0}
  m_PrefabInstance: {fileID: 0}
  m_PrefabAsset: {fileID: 0}
  m_GameObject: {fileID: 5753510054549709786}
  m_Enabled: 1
  m_EditorHideFlags: 0
  m_Script: {fileID: 11500000, guid: 48b41735204b8554198714f3693c3a81, type: 3}
  m_Name: 
  m_EditorClassIdentifier: 
  m_shaderVariableName: _Dither
  m_fadeTo: 0.5
