%YAML 1.1
%TAG !u! tag:unity3d.com,2011:
--- !u!114 &11400000
MonoBehaviour:
  m_ObjectHideFlags: 0
  m_CorrespondingSourceObject: {fileID: 0}
  m_PrefabInstance: {fileID: 0}
  m_PrefabAsset: {fileID: 0}
  m_GameObject: {fileID: 0}
  m_Enabled: 1
  m_EditorHideFlags: 0
  m_Script: {fileID: 11500000, guid: fd3ca0f17a6ebcd4abd7048816d6b70c, type: 3}
  m_Name: Brewing
  m_EditorClassIdentifier: 
  IconPrefab: {fileID: 6078941422774988793, guid: dacf094516bdb0443be18ba98d41d71d,
    type: 3}
  Priority: 90
  DisplayType: 3
  MomentarilyDisplayTime: 0
  PulsingSpeed: 0
