%YAML 1.1
%TAG !u! tag:unity3d.com,2011:
--- !u!114 &11400000
MonoBehaviour:
  m_ObjectHideFlags: 0
  m_CorrespondingSourceObject: {fileID: 0}
  m_PrefabInstance: {fileID: 0}
  m_PrefabAsset: {fileID: 0}
  m_GameObject: {fileID: 0}
  m_Enabled: 1
  m_EditorHideFlags: 0
  m_Script: {fileID: 11500000, guid: fd3ca0f17a6ebcd4abd7048816d6b70c, type: 3}
  m_Name: Empty
  m_EditorClassIdentifier: 
  IconPrefab: {fileID: 6446207028147565917, guid: 464e378e342633e4e9294a21da8455ee,
    type: 3}
  Priority: 100
  DisplayType: 1
  MomentarilyDisplayTime: 0
  PulsingSpeed: 1
