%YAML 1.1
%TAG !u! tag:unity3d.com,2011:
--- !u!114 &11400000
MonoBehaviour:
  m_ObjectHideFlags: 0
  m_CorrespondingSourceObject: {fileID: 0}
  m_PrefabInstance: {fileID: 0}
  m_PrefabAsset: {fileID: 0}
  m_GameObject: {fileID: 0}
  m_Enabled: 1
  m_EditorHideFlags: 0
  m_Script: {fileID: 11500000, guid: 6e1bf276c40f36c43abe8bf5e7f04db1, type: 3}
  m_Name: None
  m_EditorClassIdentifier: 
  <CustomizationReceiver>k__BackingField: {fileID: 0}
  <Icon>k__BackingField: {fileID: 21300000, guid: c88541d964a58e14487623eeab25f0ab,
    type: 3}
  <ItemName>k__BackingField: None
  <AvailableThemes>k__BackingField: []
  <CustomizableType>k__BackingField: 3
  <InitiallyPurchased>k__BackingField: 1
  <InitiallyVisible>k__BackingField: 1
