%YAML 1.1
%TAG !u! tag:unity3d.com,2011:
--- !u!114 &11400000
MonoBehaviour:
  m_ObjectHideFlags: 0
  m_CorrespondingSourceObject: {fileID: 0}
  m_PrefabInstance: {fileID: 0}
  m_PrefabAsset: {fileID: 0}
  m_GameObject: {fileID: 0}
  m_Enabled: 1
  m_EditorHideFlags: 0
  m_Script: {fileID: 11500000, guid: 8769e4d20b0fb2044acf9e7527d11e88, type: 3}
  m_Name: BatchBrewer_Actions
  m_EditorClassIdentifier: 
  <Actions>k__BackingField:
  - {fileID: 11400000, guid: 67acb4c90bd94d64abe85bd4aec37c35, type: 2}
  - {fileID: 11400000, guid: c76a117e771ffa7408878b9040e7a78b, type: 2}
  - {fileID: 11400000, guid: 919ffb36382e15642be1b5271f7c174c, type: 2}
  - {fileID: 11400000, guid: 41a5824a534315945be59dee2e01908d, type: 2}
  - {fileID: 11400000, guid: 90816f8185feaa64ab7f2ce595690f7b, type: 2}
  - {fileID: 11400000, guid: e2e70df4a15c05d49a36d20e0f698070, type: 2}
