%YAML 1.1
%TAG !u! tag:unity3d.com,2011:
--- !u!114 &11400000
MonoBehaviour:
  m_ObjectHideFlags: 0
  m_CorrespondingSourceObject: {fileID: 0}
  m_PrefabInstance: {fileID: 0}
  m_PrefabAsset: {fileID: 0}
  m_GameObject: {fileID: 0}
  m_Enabled: 1
  m_EditorHideFlags: 0
  m_Script: {fileID: 11500000, guid: 8769e4d20b0fb2044acf9e7527d11e88, type: 3}
  m_Name: InstantMachine_Actions
  m_EditorClassIdentifier: 
  <Actions>k__BackingField:
  - {fileID: 11400000, guid: bc8a78d7129074b9ca19741204646b52, type: 2}
  - {fileID: 11400000, guid: b6518adfc00ca455a9aab9d9c72f625d, type: 2}
  - {fileID: 11400000, guid: a6398ddf0c5e3460a8186582cc8f192a, type: 2}
  - {fileID: 11400000, guid: b452bf7e026e9c54b918e6a6c3c3a10f, type: 2}
  - {fileID: 11400000, guid: c89ba677532162445bdff5fcbec762b0, type: 2}
