%YAML 1.1
%TAG !u! tag:unity3d.com,2011:
--- !u!114 &11400000
MonoBehaviour:
  m_ObjectHideFlags: 0
  m_CorrespondingSourceObject: {fileID: 0}
  m_PrefabInstance: {fileID: 0}
  m_PrefabAsset: {fileID: 0}
  m_GameObject: {fileID: 0}
  m_Enabled: 1
  m_EditorHideFlags: 0
  m_Script: {fileID: 11500000, guid: 5292ca4633c09e046aec0866adcf4e0a, type: 3}
  m_Name: Quality_Tag_Premium
  m_EditorClassIdentifier: 
  <TagData>k__BackingField:
    GradiantColorA:
      serializedVersion: 2
      rgba: 4287673564
    GradientColorB:
      serializedVersion: 2
      rgba: 4285500589
    TagName: PREMIUM
    NameColor:
      serializedVersion: 2
      rgba: 4294967295
    IsShiny: 0
    HasShadow: 0
    ShadowColor:
      serializedVersion: 2
      rgba: 0
    HasDropShadow: 0
