{
  "dependencies": {
    "com.arongranberg.astar": {
      "version": "5.2.4",
      "depth": 0,
      "source": "registry",
      "dependencies": {
        "com.unity.burst": "1.8.7",
        "com.unity.collections": "1.5.1",
        "com.unity.mathematics": "1.2.6",
        "com.unity.modules.animation": "1.0.0",
        "com.unity.modules.assetbundle": "1.0.0",
        "com.unity.modules.audio": "1.0.0",
        "com.unity.modules.imgui": "1.0.0",
        "com.unity.modules.particlesystem": "1.0.0",
        "com.unity.modules.physics": "1.0.0",
        "com.unity.modules.physics2d": "1.0.0",
        "com.unity.modules.terrain": "1.0.0",
        "com.unity.modules.terrainphysics": "1.0.0",
        "com.unity.modules.tilemap": "1.0.0",
        "com.unity.modules.ui": "1.0.0",
        "com.unity.modules.uielements": "1.0.0",
        "com.unity.ugui": "1.0.0"
      },
      "url": "https://arongranberg.com/packages/c8665b6090145be9cec802e73533e85363b4a6bc58390"
    },
    "com.coffee.ui-effect": {
      "version": "https://github.com/mob-sakai/UIEffect.git",
      "depth": 0,
      "source": "git",
      "dependencies": {},
      "hash": "b43e40508b167d143330d8b9eff0d5c9965cdf3c"
    },
    "com.unity.2d.sprite": {
      "version": "1.0.0",
      "depth": 0,
      "source": "builtin",
      "dependencies": {}
    },
    "com.unity.animation.rigging": {
      "version": "1.3.0",
      "depth": 0,
      "source": "registry",
      "dependencies": {
        "com.unity.burst": "1.4.1",
        "com.unity.test-framework": "1.1.24"
      },
      "url": "https://packages.unity.com"
    },
    "com.unity.behavior": {
      "version": "1.0.3",
      "depth": 0,
      "source": "registry",
      "dependencies": {
        "com.unity.burst": "1.7.2",
        "com.unity.dt.app-ui": "2.0.0-pre.10",
        "com.unity.modules.ai": "1.0.0",
        "com.unity.collections": "2.1.4",
        "com.unity.modules.audio": "1.0.0",
        "com.unity.modules.animation": "1.0.0",
        "com.unity.nuget.newtonsoft-json": "3.2.1",
        "com.unity.modules.particlesystem": "1.0.0",
        "com.unity.modules.unitywebrequest": "1.0.0"
      },
      "url": "https://packages.unity.com"
    },
    "com.unity.bindings.openimageio": {
      "version": "1.0.0",
      "depth": 1,
      "source": "registry",
      "dependencies": {
        "com.unity.collections": "1.0.0"
      },
      "url": "https://packages.unity.com"
    },
    "com.unity.burst": {
      "version": "1.8.19",
      "depth": 1,
      "source": "registry",
      "dependencies": {
        "com.unity.mathematics": "1.2.1",
        "com.unity.modules.jsonserialize": "1.0.0"
      },
      "url": "https://packages.unity.com"
    },
    "com.unity.cinemachine": {
      "version": "2.10.3",
      "depth": 0,
      "source": "registry",
      "dependencies": {
        "com.unity.test-framework": "1.1.31"
      },
      "url": "https://packages.unity.com"
    },
    "com.unity.collections": {
      "version": "2.5.1",
      "depth": 1,
      "source": "registry",
      "dependencies": {
        "com.unity.burst": "1.8.17",
        "com.unity.test-framework": "1.4.5",
        "com.unity.nuget.mono-cecil": "1.11.4",
        "com.unity.test-framework.performance": "3.0.3"
      },
      "url": "https://packages.unity.com"
    },
    "com.unity.dt.app-ui": {
      "version": "2.0.0-pre.10",
      "depth": 1,
      "source": "registry",
      "dependencies": {
        "com.unity.modules.physics": "1.0.0",
        "com.unity.modules.androidjni": "1.0.0",
        "com.unity.modules.uielements": "1.0.0",
        "com.unity.modules.screencapture": "1.0.0"
      },
      "url": "https://packages.unity.com"
    },
    "com.unity.ext.nunit": {
      "version": "2.0.5",
      "depth": 1,
      "source": "registry",
      "dependencies": {},
      "url": "https://packages.unity.com"
    },
    "com.unity.ide.rider": {
      "version": "3.0.34",
      "depth": 0,
      "source": "registry",
      "dependencies": {
        "com.unity.ext.nunit": "1.0.6"
      },
      "url": "https://packages.unity.com"
    },
    "com.unity.ide.visualstudio": {
      "version": "2.0.22",
      "depth": 0,
      "source": "registry",
      "dependencies": {
        "com.unity.test-framework": "1.1.9"
      },
      "url": "https://packages.unity.com"
    },
    "com.unity.inputsystem": {
      "version": "1.13.0",
      "depth": 0,
      "source": "registry",
      "dependencies": {
        "com.unity.modules.uielements": "1.0.0"
      },
      "url": "https://packages.unity.com"
    },
    "com.unity.mathematics": {
      "version": "1.3.2",
      "depth": 1,
      "source": "registry",
      "dependencies": {},
      "url": "https://packages.unity.com"
    },
    "com.unity.multiplayer.center": {
      "version": "1.0.0",
      "depth": 0,
      "source": "builtin",
      "dependencies": {
        "com.unity.modules.uielements": "1.0.0"
      }
    },
    "com.unity.nuget.mono-cecil": {
      "version": "1.11.4",
      "depth": 2,
      "source": "registry",
      "dependencies": {},
      "url": "https://packages.unity.com"
    },
    "com.unity.nuget.newtonsoft-json": {
      "version": "3.2.1",
      "depth": 0,
      "source": "registry",
      "dependencies": {},
      "url": "https://packages.unity.com"
    },
    "com.unity.probuilder": {
      "version": "6.0.4",
      "depth": 0,
      "source": "registry",
      "dependencies": {
        "com.unity.shadergraph": "17.0.2",
        "com.unity.modules.imgui": "1.0.0",
        "com.unity.modules.physics": "1.0.0",
        "com.unity.settings-manager": "1.0.3"
      },
      "url": "https://packages.unity.com"
    },
    "com.unity.recorder": {
      "version": "5.1.2",
      "depth": 0,
      "source": "registry",
      "dependencies": {
        "com.unity.timeline": "1.8.7",
        "com.unity.collections": "1.2.4",
        "com.unity.bindings.openimageio": "1.0.0"
      },
      "url": "https://packages.unity.com"
    },
    "com.unity.render-pipelines.core": {
      "version": "17.0.4",
      "depth": 1,
      "source": "builtin",
      "dependencies": {
        "com.unity.burst": "1.8.14",
        "com.unity.mathematics": "1.3.2",
        "com.unity.ugui": "2.0.0",
        "com.unity.collections": "2.4.3",
        "com.unity.modules.physics": "1.0.0",
        "com.unity.modules.terrain": "1.0.0",
        "com.unity.modules.jsonserialize": "1.0.0",
        "com.unity.rendering.light-transport": "1.0.1"
      }
    },
    "com.unity.render-pipelines.universal": {
      "version": "17.0.4",
      "depth": 0,
      "source": "builtin",
      "dependencies": {
        "com.unity.render-pipelines.core": "17.0.4",
        "com.unity.shadergraph": "17.0.4",
        "com.unity.render-pipelines.universal-config": "17.0.3"
      }
    },
    "com.unity.render-pipelines.universal-config": {
      "version": "17.0.3",
      "depth": 1,
      "source": "builtin",
      "dependencies": {
        "com.unity.render-pipelines.core": "17.0.3"
      }
    },
    "com.unity.rendering.light-transport": {
      "version": "1.0.1",
      "depth": 2,
      "source": "builtin",
      "dependencies": {
        "com.unity.collections": "2.2.0",
        "com.unity.mathematics": "1.2.4",
        "com.unity.modules.terrain": "1.0.0"
      }
    },
    "com.unity.searcher": {
      "version": "4.9.3",
      "depth": 2,
      "source": "registry",
      "dependencies": {},
      "url": "https://packages.unity.com"
    },
    "com.unity.services.cloud-diagnostics": {
      "version": "1.0.10",
      "depth": 0,
      "source": "registry",
      "dependencies": {
        "com.unity.services.core": "1.12.5"
      },
      "url": "https://packages.unity.com"
    },
    "com.unity.services.core": {
      "version": "1.14.0",
      "depth": 1,
      "source": "registry",
      "dependencies": {
        "com.unity.modules.androidjni": "1.0.0",
        "com.unity.nuget.newtonsoft-json": "3.2.1",
        "com.unity.modules.unitywebrequest": "1.0.0"
      },
      "url": "https://packages.unity.com"
    },
    "com.unity.settings-manager": {
      "version": "2.0.1",
      "depth": 1,
      "source": "registry",
      "dependencies": {},
      "url": "https://packages.unity.com"
    },
    "com.unity.shadergraph": {
      "version": "17.0.4",
      "depth": 1,
      "source": "builtin",
      "dependencies": {
        "com.unity.render-pipelines.core": "17.0.4",
        "com.unity.searcher": "4.9.3"
      }
    },
    "com.unity.splines": {
      "version": "2.7.2",
      "depth": 0,
      "source": "registry",
      "dependencies": {
        "com.unity.mathematics": "1.2.1",
        "com.unity.settings-manager": "1.0.3"
      },
      "url": "https://packages.unity.com"
    },
    "com.unity.test-framework": {
      "version": "1.4.6",
      "depth": 0,
      "source": "registry",
      "dependencies": {
        "com.unity.ext.nunit": "2.0.3",
        "com.unity.modules.imgui": "1.0.0",
        "com.unity.modules.jsonserialize": "1.0.0"
      },
      "url": "https://packages.unity.com"
    },
    "com.unity.test-framework.performance": {
      "version": "3.0.3",
      "depth": 2,
      "source": "registry",
      "dependencies": {
        "com.unity.test-framework": "1.1.31",
        "com.unity.modules.jsonserialize": "1.0.0"
      },
      "url": "https://packages.unity.com"
    },
    "com.unity.timeline": {
      "version": "1.8.7",
      "depth": 0,
      "source": "registry",
      "dependencies": {
        "com.unity.modules.audio": "1.0.0",
        "com.unity.modules.director": "1.0.0",
        "com.unity.modules.animation": "1.0.0",
        "com.unity.modules.particlesystem": "1.0.0"
      },
      "url": "https://packages.unity.com"
    },
    "com.unity.ugui": {
      "version": "2.0.0",
      "depth": 0,
      "source": "builtin",
      "dependencies": {
        "com.unity.modules.ui": "1.0.0",
        "com.unity.modules.imgui": "1.0.0"
      }
    },
    "com.unity.uiextensions": {
      "version": "https://bitbucket.org/UnityUIExtensions/unity-ui-extensions.git",
      "depth": 0,
      "source": "git",
      "dependencies": {},
      "hash": "7271aab53fc11f024e9e1256507f0c701daa25cb"
    },
    "com.unity.visualeffectgraph": {
      "version": "17.0.4",
      "depth": 0,
      "source": "builtin",
      "dependencies": {
        "com.unity.shadergraph": "17.0.4",
        "com.unity.render-pipelines.core": "17.0.4"
      }
    },
    "com.unity.modules.accessibility": {
      "version": "1.0.0",
      "depth": 0,
      "source": "builtin",
      "dependencies": {}
    },
    "com.unity.modules.ai": {
      "version": "1.0.0",
      "depth": 0,
      "source": "builtin",
      "dependencies": {}
    },
    "com.unity.modules.androidjni": {
      "version": "1.0.0",
      "depth": 0,
      "source": "builtin",
      "dependencies": {}
    },
    "com.unity.modules.animation": {
      "version": "1.0.0",
      "depth": 0,
      "source": "builtin",
      "dependencies": {}
    },
    "com.unity.modules.assetbundle": {
      "version": "1.0.0",
      "depth": 0,
      "source": "builtin",
      "dependencies": {}
    },
    "com.unity.modules.audio": {
      "version": "1.0.0",
      "depth": 0,
      "source": "builtin",
      "dependencies": {}
    },
    "com.unity.modules.cloth": {
      "version": "1.0.0",
      "depth": 0,
      "source": "builtin",
      "dependencies": {
        "com.unity.modules.physics": "1.0.0"
      }
    },
    "com.unity.modules.director": {
      "version": "1.0.0",
      "depth": 0,
      "source": "builtin",
      "dependencies": {
        "com.unity.modules.audio": "1.0.0",
        "com.unity.modules.animation": "1.0.0"
      }
    },
    "com.unity.modules.hierarchycore": {
      "version": "1.0.0",
      "depth": 1,
      "source": "builtin",
      "dependencies": {}
    },
    "com.unity.modules.imageconversion": {
      "version": "1.0.0",
      "depth": 0,
      "source": "builtin",
      "dependencies": {}
    },
    "com.unity.modules.imgui": {
      "version": "1.0.0",
      "depth": 0,
      "source": "builtin",
      "dependencies": {}
    },
    "com.unity.modules.jsonserialize": {
      "version": "1.0.0",
      "depth": 0,
      "source": "builtin",
      "dependencies": {}
    },
    "com.unity.modules.particlesystem": {
      "version": "1.0.0",
      "depth": 0,
      "source": "builtin",
      "dependencies": {}
    },
    "com.unity.modules.physics": {
      "version": "1.0.0",
      "depth": 0,
      "source": "builtin",
      "dependencies": {}
    },
    "com.unity.modules.physics2d": {
      "version": "1.0.0",
      "depth": 0,
      "source": "builtin",
      "dependencies": {}
    },
    "com.unity.modules.screencapture": {
      "version": "1.0.0",
      "depth": 0,
      "source": "builtin",
      "dependencies": {
        "com.unity.modules.imageconversion": "1.0.0"
      }
    },
    "com.unity.modules.subsystems": {
      "version": "1.0.0",
      "depth": 1,
      "source": "builtin",
      "dependencies": {
        "com.unity.modules.jsonserialize": "1.0.0"
      }
    },
    "com.unity.modules.terrain": {
      "version": "1.0.0",
      "depth": 0,
      "source": "builtin",
      "dependencies": {}
    },
    "com.unity.modules.terrainphysics": {
      "version": "1.0.0",
      "depth": 0,
      "source": "builtin",
      "dependencies": {
        "com.unity.modules.physics": "1.0.0",
        "com.unity.modules.terrain": "1.0.0"
      }
    },
    "com.unity.modules.tilemap": {
      "version": "1.0.0",
      "depth": 0,
      "source": "builtin",
      "dependencies": {
        "com.unity.modules.physics2d": "1.0.0"
      }
    },
    "com.unity.modules.ui": {
      "version": "1.0.0",
      "depth": 0,
      "source": "builtin",
      "dependencies": {}
    },
    "com.unity.modules.uielements": {
      "version": "1.0.0",
      "depth": 0,
      "source": "builtin",
      "dependencies": {
        "com.unity.modules.ui": "1.0.0",
        "com.unity.modules.imgui": "1.0.0",
        "com.unity.modules.jsonserialize": "1.0.0",
        "com.unity.modules.hierarchycore": "1.0.0"
      }
    },
    "com.unity.modules.umbra": {
      "version": "1.0.0",
      "depth": 0,
      "source": "builtin",
      "dependencies": {}
    },
    "com.unity.modules.unityanalytics": {
      "version": "1.0.0",
      "depth": 0,
      "source": "builtin",
      "dependencies": {
        "com.unity.modules.unitywebrequest": "1.0.0",
        "com.unity.modules.jsonserialize": "1.0.0"
      }
    },
    "com.unity.modules.unitywebrequest": {
      "version": "1.0.0",
      "depth": 0,
      "source": "builtin",
      "dependencies": {}
    },
    "com.unity.modules.unitywebrequestassetbundle": {
      "version": "1.0.0",
      "depth": 0,
      "source": "builtin",
      "dependencies": {
        "com.unity.modules.assetbundle": "1.0.0",
        "com.unity.modules.unitywebrequest": "1.0.0"
      }
    },
    "com.unity.modules.unitywebrequestaudio": {
      "version": "1.0.0",
      "depth": 0,
      "source": "builtin",
      "dependencies": {
        "com.unity.modules.unitywebrequest": "1.0.0",
        "com.unity.modules.audio": "1.0.0"
      }
    },
    "com.unity.modules.unitywebrequesttexture": {
      "version": "1.0.0",
      "depth": 0,
      "source": "builtin",
      "dependencies": {
        "com.unity.modules.unitywebrequest": "1.0.0",
        "com.unity.modules.imageconversion": "1.0.0"
      }
    },
    "com.unity.modules.unitywebrequestwww": {
      "version": "1.0.0",
      "depth": 0,
      "source": "builtin",
      "dependencies": {
        "com.unity.modules.unitywebrequest": "1.0.0",
        "com.unity.modules.unitywebrequestassetbundle": "1.0.0",
        "com.unity.modules.unitywebrequestaudio": "1.0.0",
        "com.unity.modules.audio": "1.0.0",
        "com.unity.modules.assetbundle": "1.0.0",
        "com.unity.modules.imageconversion": "1.0.0"
      }
    },
    "com.unity.modules.vehicles": {
      "version": "1.0.0",
      "depth": 0,
      "source": "builtin",
      "dependencies": {
        "com.unity.modules.physics": "1.0.0"
      }
    },
    "com.unity.modules.video": {
      "version": "1.0.0",
      "depth": 0,
      "source": "builtin",
      "dependencies": {
        "com.unity.modules.audio": "1.0.0",
        "com.unity.modules.ui": "1.0.0",
        "com.unity.modules.unitywebrequest": "1.0.0"
      }
    },
    "com.unity.modules.vr": {
      "version": "1.0.0",
      "depth": 0,
      "source": "builtin",
      "dependencies": {
        "com.unity.modules.jsonserialize": "1.0.0",
        "com.unity.modules.physics": "1.0.0",
        "com.unity.modules.xr": "1.0.0"
      }
    },
    "com.unity.modules.wind": {
      "version": "1.0.0",
      "depth": 0,
      "source": "builtin",
      "dependencies": {}
    },
    "com.unity.modules.xr": {
      "version": "1.0.0",
      "depth": 0,
      "source": "builtin",
      "dependencies": {
        "com.unity.modules.physics": "1.0.0",
        "com.unity.modules.jsonserialize": "1.0.0",
        "com.unity.modules.subsystems": "1.0.0"
      }
    }
  }
}
