%YAML 1.1
%TAG !u! tag:unity3d.com,2011:
--- !u!21 &2103686
Material:
  serializedVersion: 8
  m_ObjectHideFlags: 1
  m_CorrespondingSourceObject: {fileID: 0}
  m_PrefabInstance: {fileID: 0}
  m_PrefabAsset: {fileID: 0}
  m_Name: TextMeshPro/Sprite
  m_Shader: {fileID: 4800000, guid: cf81c85f95fe47e1a27f6ae460cf182c, type: 3}
  m_Parent: {fileID: 0}
  m_ModifiedSerializedProperties: 0
  m_ValidKeywords:
  - UNITY_UI_CLIP_RECT
  m_InvalidKeywords: []
  m_LightmapFlags: 5
  m_EnableInstancingVariants: 0
  m_DoubleSidedGI: 0
  m_CustomRenderQueue: -1
  stringTagMap: {}
  disabledShaderPasses: []
  m_LockedProperties: 
  m_SavedProperties:
    serializedVersion: 3
    m_TexEnvs:
    - _MainTex:
        m_Texture: {fileID: 2800000, guid: 9a26669102338bf47a397c55cf0c7e1d, type: 3}
        m_Scale: {x: 1, y: 1}
        m_Offset: {x: 0, y: 0}
    m_Ints: []
    m_Floats:
    - _ColorMask: 15
    - _CullMode: 0
    - _Stencil: 0
    - _StencilComp: 8
    - _StencilOp: 0
    - _StencilReadMask: 255
    - _StencilWriteMask: 255
    - _UseUIAlphaClip: 0
    m_Colors:
    - _ClipRect: {r: -32767, g: -32767, b: 32767, a: 32767}
    - _Color: {r: 1, g: 1, b: 1, a: 1}
  m_BuildTextureStacks: []
--- !u!114 &11400000
MonoBehaviour:
  m_ObjectHideFlags: 0
  m_CorrespondingSourceObject: {fileID: 0}
  m_PrefabInstance: {fileID: 0}
  m_PrefabAsset: {fileID: 0}
  m_GameObject: {fileID: 0}
  m_Enabled: 1
  m_EditorHideFlags: 0
  m_Script: {fileID: 11500000, guid: 84a92b25f83d49b9bc132d206b370281, type: 3}
  m_Name: BRAG_Sprites_TMP
  m_EditorClassIdentifier: 
  hashCode: -1836805472
  material: {fileID: 2103686}
  materialHashCode: 0
  m_Version: 1.1.0
  m_FaceInfo:
    m_FaceIndex: 0
    m_FamilyName: 
    m_StyleName: 
    m_PointSize: 0
    m_Scale: 0
    m_UnitsPerEM: 0
    m_LineHeight: 0
    m_AscentLine: 0
    m_CapLine: 0
    m_MeanLine: 0
    m_Baseline: 0
    m_DescentLine: 0
    m_SuperscriptOffset: 0
    m_SuperscriptSize: 0
    m_SubscriptOffset: 0
    m_SubscriptSize: 0
    m_UnderlineOffset: 0
    m_UnderlineThickness: 0
    m_StrikethroughOffset: 0
    m_StrikethroughThickness: 0
    m_TabWidth: 0
  spriteSheet: {fileID: 2800000, guid: 9a26669102338bf47a397c55cf0c7e1d, type: 3}
  m_SpriteCharacterTable:
  - m_ElementType: 2
    m_Unicode: 128522
    m_GlyphIndex: 0
    m_Scale: 1.5
    m_Name: Smiling face with smiling eyes
    m_HashCode: -1318250903
  - m_ElementType: 2
    m_Unicode: 128523
    m_GlyphIndex: 1
    m_Scale: 1.5
    m_Name: 1f60b
    m_HashCode: 57188339
  - m_ElementType: 2
    m_Unicode: 128525
    m_GlyphIndex: 2
    m_Scale: 1
    m_Name: 1f60d
    m_HashCode: 57188341
  - m_ElementType: 2
    m_Unicode: 128526
    m_GlyphIndex: 3
    m_Scale: 1
    m_Name: 1f60e
    m_HashCode: 57188340
  - m_ElementType: 2
    m_Unicode: 128512
    m_GlyphIndex: 4
    m_Scale: 1
    m_Name: Grinning face
    m_HashCode: -95541379
  - m_ElementType: 2
    m_Unicode: 128513
    m_GlyphIndex: 5
    m_Scale: 1
    m_Name: 1f601
    m_HashCode: 57188256
  - m_ElementType: 2
    m_Unicode: 128514
    m_GlyphIndex: 6
    m_Scale: 1
    m_Name: Face with tears of joy
    m_HashCode: 239522663
  - m_ElementType: 2
    m_Unicode: 128515
    m_GlyphIndex: 7
    m_Scale: 1
    m_Name: 1f603
    m_HashCode: 57188258
  - m_ElementType: 2
    m_Unicode: 128516
    m_GlyphIndex: 8
    m_Scale: 1
    m_Name: 1f604
    m_HashCode: 57188261
  - m_ElementType: 2
    m_Unicode: 128517
    m_GlyphIndex: 9
    m_Scale: 1
    m_Name: 1f605
    m_HashCode: 57188260
  - m_ElementType: 2
    m_Unicode: 128518
    m_GlyphIndex: 10
    m_Scale: 1
    m_Name: 1f606
    m_HashCode: 57188263
  - m_ElementType: 2
    m_Unicode: 128521
    m_GlyphIndex: 11
    m_Scale: 1
    m_Name: 1f609
    m_HashCode: 57188264
  - m_ElementType: 2
    m_Unicode: 128536
    m_GlyphIndex: 12
    m_Scale: 1
    m_Name: 1f618
    m_HashCode: 57188168
  - m_ElementType: 2
    m_Unicode: 129315
    m_GlyphIndex: 13
    m_Scale: 1
    m_Name: 1f923
    m_HashCode: 57200239
  - m_ElementType: 2
    m_Unicode: 9786
    m_GlyphIndex: 14
    m_Scale: 1
    m_Name: 263a
    m_HashCode: 1748406
  - m_ElementType: 2
    m_Unicode: 9785
    m_GlyphIndex: 15
    m_Scale: 1
    m_Name: 2639
    m_HashCode: 1748462
  m_SpriteGlyphTable:
  - m_Index: 0
    m_Metrics:
      m_Width: 128
      m_Height: 128
      m_HorizontalBearingX: 0
      m_HorizontalBearingY: 100
      m_HorizontalAdvance: 128
    m_GlyphRect:
      m_X: 0
      m_Y: 384
      m_Width: 128
      m_Height: 128
    m_Scale: 1
    m_AtlasIndex: 0
    m_ClassDefinitionType: 0
    sprite: {fileID: 0}
  - m_Index: 1
    m_Metrics:
      m_Width: 128
      m_Height: 128
      m_HorizontalBearingX: 0
      m_HorizontalBearingY: 100
      m_HorizontalAdvance: 128
    m_GlyphRect:
      m_X: 128
      m_Y: 384
      m_Width: 128
      m_Height: 128
    m_Scale: 1
    m_AtlasIndex: 0
    m_ClassDefinitionType: 0
    sprite: {fileID: 0}
  - m_Index: 2
    m_Metrics:
      m_Width: 128
      m_Height: 128
      m_HorizontalBearingX: 0
      m_HorizontalBearingY: 115.6
      m_HorizontalAdvance: 128
    m_GlyphRect:
      m_X: 256
      m_Y: 384
      m_Width: 128
      m_Height: 128
    m_Scale: 1
    m_AtlasIndex: 0
    m_ClassDefinitionType: 0
    sprite: {fileID: 0}
  - m_Index: 3
    m_Metrics:
      m_Width: 128
      m_Height: 128
      m_HorizontalBearingX: 0
      m_HorizontalBearingY: 115.6
      m_HorizontalAdvance: 128
    m_GlyphRect:
      m_X: 384
      m_Y: 384
      m_Width: 128
      m_Height: 128
    m_Scale: 1
    m_AtlasIndex: 0
    m_ClassDefinitionType: 0
    sprite: {fileID: 0}
  - m_Index: 4
    m_Metrics:
      m_Width: 128
      m_Height: 128
      m_HorizontalBearingX: 0
      m_HorizontalBearingY: 115.6
      m_HorizontalAdvance: 128
    m_GlyphRect:
      m_X: 0
      m_Y: 256
      m_Width: 128
      m_Height: 128
    m_Scale: 1
    m_AtlasIndex: 0
    m_ClassDefinitionType: 0
    sprite: {fileID: 0}
  - m_Index: 5
    m_Metrics:
      m_Width: 128
      m_Height: 128
      m_HorizontalBearingX: 0
      m_HorizontalBearingY: 115.6
      m_HorizontalAdvance: 128
    m_GlyphRect:
      m_X: 128
      m_Y: 256
      m_Width: 128
      m_Height: 128
    m_Scale: 1
    m_AtlasIndex: 0
    m_ClassDefinitionType: 0
    sprite: {fileID: 0}
  - m_Index: 6
    m_Metrics:
      m_Width: 128
      m_Height: 128
      m_HorizontalBearingX: 0
      m_HorizontalBearingY: 115.6
      m_HorizontalAdvance: 128
    m_GlyphRect:
      m_X: 256
      m_Y: 256
      m_Width: 128
      m_Height: 128
    m_Scale: 1
    m_AtlasIndex: 0
    m_ClassDefinitionType: 0
    sprite: {fileID: 0}
  - m_Index: 7
    m_Metrics:
      m_Width: 128
      m_Height: 128
      m_HorizontalBearingX: 0
      m_HorizontalBearingY: 115.6
      m_HorizontalAdvance: 128
    m_GlyphRect:
      m_X: 384
      m_Y: 256
      m_Width: 128
      m_Height: 128
    m_Scale: 1
    m_AtlasIndex: 0
    m_ClassDefinitionType: 0
    sprite: {fileID: 0}
  - m_Index: 8
    m_Metrics:
      m_Width: 128
      m_Height: 128
      m_HorizontalBearingX: 0
      m_HorizontalBearingY: 115.6
      m_HorizontalAdvance: 128
    m_GlyphRect:
      m_X: 0
      m_Y: 128
      m_Width: 128
      m_Height: 128
    m_Scale: 1
    m_AtlasIndex: 0
    m_ClassDefinitionType: 0
    sprite: {fileID: 0}
  - m_Index: 9
    m_Metrics:
      m_Width: 128
      m_Height: 128
      m_HorizontalBearingX: 0
      m_HorizontalBearingY: 115.6
      m_HorizontalAdvance: 128
    m_GlyphRect:
      m_X: 128
      m_Y: 128
      m_Width: 128
      m_Height: 128
    m_Scale: 1
    m_AtlasIndex: 0
    m_ClassDefinitionType: 0
    sprite: {fileID: 0}
  - m_Index: 10
    m_Metrics:
      m_Width: 128
      m_Height: 128
      m_HorizontalBearingX: 0
      m_HorizontalBearingY: 115.6
      m_HorizontalAdvance: 128
    m_GlyphRect:
      m_X: 256
      m_Y: 128
      m_Width: 128
      m_Height: 128
    m_Scale: 1
    m_AtlasIndex: 0
    m_ClassDefinitionType: 0
    sprite: {fileID: 0}
  - m_Index: 11
    m_Metrics:
      m_Width: 128
      m_Height: 128
      m_HorizontalBearingX: 0
      m_HorizontalBearingY: 115.6
      m_HorizontalAdvance: 128
    m_GlyphRect:
      m_X: 384
      m_Y: 128
      m_Width: 128
      m_Height: 128
    m_Scale: 1
    m_AtlasIndex: 0
    m_ClassDefinitionType: 0
    sprite: {fileID: 0}
  - m_Index: 12
    m_Metrics:
      m_Width: 128
      m_Height: 128
      m_HorizontalBearingX: 0
      m_HorizontalBearingY: 115.6
      m_HorizontalAdvance: 128
    m_GlyphRect:
      m_X: 0
      m_Y: 0
      m_Width: 128
      m_Height: 128
    m_Scale: 1
    m_AtlasIndex: 0
    m_ClassDefinitionType: 0
    sprite: {fileID: 0}
  - m_Index: 13
    m_Metrics:
      m_Width: 128
      m_Height: 128
      m_HorizontalBearingX: 0
      m_HorizontalBearingY: 115.6
      m_HorizontalAdvance: 128
    m_GlyphRect:
      m_X: 128
      m_Y: 0
      m_Width: 128
      m_Height: 128
    m_Scale: 1
    m_AtlasIndex: 0
    m_ClassDefinitionType: 0
    sprite: {fileID: 0}
  - m_Index: 14
    m_Metrics:
      m_Width: 128
      m_Height: 128
      m_HorizontalBearingX: 0
      m_HorizontalBearingY: 115.6
      m_HorizontalAdvance: 128
    m_GlyphRect:
      m_X: 256
      m_Y: 0
      m_Width: 128
      m_Height: 128
    m_Scale: 1
    m_AtlasIndex: 0
    m_ClassDefinitionType: 0
    sprite: {fileID: 0}
  - m_Index: 15
    m_Metrics:
      m_Width: 128
      m_Height: 128
      m_HorizontalBearingX: 0
      m_HorizontalBearingY: 115.6
      m_HorizontalAdvance: 128
    m_GlyphRect:
      m_X: 384
      m_Y: 0
      m_Width: 128
      m_Height: 128
    m_Scale: 1
    m_AtlasIndex: 0
    m_ClassDefinitionType: 0
    sprite: {fileID: 0}
  spriteInfoList:
  - id: 0
    x: 0
    y: 384
    width: 128
    height: 128
    xOffset: 0
    yOffset: 115.6
    xAdvance: 128
    scale: 1
    name: Smiling face with smiling eyes
    hashCode: -1318250903
    unicode: 128522
    pivot: {x: 0.5, y: 0.5}
    sprite: {fileID: 0}
  - id: 1
    x: 128
    y: 384
    width: 128
    height: 128
    xOffset: 0
    yOffset: 115.6
    xAdvance: 128
    scale: 1
    name: 1f60b
    hashCode: 57188339
    unicode: 128523
    pivot: {x: 0.5, y: 0.5}
    sprite: {fileID: 0}
  - id: 2
    x: 256
    y: 384
    width: 128
    height: 128
    xOffset: 0
    yOffset: 115.6
    xAdvance: 128
    scale: 1
    name: 1f60d
    hashCode: 57188341
    unicode: 128525
    pivot: {x: 0.5, y: 0.5}
    sprite: {fileID: 0}
  - id: 3
    x: 384
    y: 384
    width: 128
    height: 128
    xOffset: 0
    yOffset: 115.6
    xAdvance: 128
    scale: 1
    name: 1f60e
    hashCode: 57188340
    unicode: 128526
    pivot: {x: 0.5, y: 0.5}
    sprite: {fileID: 0}
  - id: 4
    x: 0
    y: 256
    width: 128
    height: 128
    xOffset: 0
    yOffset: 115.6
    xAdvance: 128
    scale: 1
    name: Grinning face
    hashCode: -95541379
    unicode: 128512
    pivot: {x: 0.5, y: 0.5}
    sprite: {fileID: 0}
  - id: 5
    x: 128
    y: 256
    width: 128
    height: 128
    xOffset: 0
    yOffset: 115.6
    xAdvance: 128
    scale: 1
    name: 1f601
    hashCode: 57188256
    unicode: 128513
    pivot: {x: 0.5, y: 0.5}
    sprite: {fileID: 0}
  - id: 6
    x: 256
    y: 256
    width: 128
    height: 128
    xOffset: 0
    yOffset: 115.6
    xAdvance: 128
    scale: 1
    name: Face with tears of joy
    hashCode: 239522663
    unicode: 128514
    pivot: {x: 0.5, y: 0.5}
    sprite: {fileID: 0}
  - id: 7
    x: 384
    y: 256
    width: 128
    height: 128
    xOffset: 0
    yOffset: 115.6
    xAdvance: 128
    scale: 1
    name: 1f603
    hashCode: 57188258
    unicode: 128515
    pivot: {x: 0.5, y: 0.5}
    sprite: {fileID: 0}
  - id: 8
    x: 0
    y: 128
    width: 128
    height: 128
    xOffset: 0
    yOffset: 115.6
    xAdvance: 128
    scale: 1
    name: 1f604
    hashCode: 57188261
    unicode: 128516
    pivot: {x: 0.5, y: 0.5}
    sprite: {fileID: 0}
  - id: 9
    x: 128
    y: 128
    width: 128
    height: 128
    xOffset: 0
    yOffset: 115.6
    xAdvance: 128
    scale: 1
    name: 1f605
    hashCode: 57188260
    unicode: 128517
    pivot: {x: 0.5, y: 0.5}
    sprite: {fileID: 0}
  - id: 10
    x: 256
    y: 128
    width: 128
    height: 128
    xOffset: 0
    yOffset: 115.6
    xAdvance: 128
    scale: 1
    name: 1f606
    hashCode: 57188263
    unicode: 128518
    pivot: {x: 0.5, y: 0.5}
    sprite: {fileID: 0}
  - id: 11
    x: 384
    y: 128
    width: 128
    height: 128
    xOffset: 0
    yOffset: 115.6
    xAdvance: 128
    scale: 1
    name: 1f609
    hashCode: 57188264
    unicode: 128521
    pivot: {x: 0.5, y: 0.5}
    sprite: {fileID: 0}
  - id: 12
    x: 0
    y: 0
    width: 128
    height: 128
    xOffset: 0
    yOffset: 115.6
    xAdvance: 128
    scale: 1
    name: 1f618
    hashCode: 57188168
    unicode: 128536
    pivot: {x: 0.5, y: 0.5}
    sprite: {fileID: 0}
  - id: 13
    x: 128
    y: 0
    width: 128
    height: 128
    xOffset: 0
    yOffset: 115.6
    xAdvance: 128
    scale: 1
    name: 1f923
    hashCode: 57200239
    unicode: 129315
    pivot: {x: 0.5, y: 0.5}
    sprite: {fileID: 0}
  - id: 14
    x: 256
    y: 0
    width: 128
    height: 128
    xOffset: 0
    yOffset: 115.6
    xAdvance: 128
    scale: 1
    name: 263a
    hashCode: 1748406
    unicode: 9786
    pivot: {x: 0.5, y: 0.5}
    sprite: {fileID: 0}
  - id: 15
    x: 384
    y: 0
    width: 128
    height: 128
    xOffset: 0
    yOffset: 115.6
    xAdvance: 128
    scale: 1
    name: 2639
    hashCode: 1748462
    unicode: 9785
    pivot: {x: 0.5, y: 0.5}
    sprite: {fileID: 0}
  fallbackSpriteAssets: []
--- !u!21 &1369835458
Material:
  serializedVersion: 8
  m_ObjectHideFlags: 1
  m_CorrespondingSourceObject: {fileID: 0}
  m_PrefabInstance: {fileID: 0}
  m_PrefabAsset: {fileID: 0}
  m_Name: TextMeshPro/Sprite
  m_Shader: {fileID: 4800000, guid: cf81c85f95fe47e1a27f6ae460cf182c, type: 3}
  m_Parent: {fileID: 0}
  m_ModifiedSerializedProperties: 0
  m_ValidKeywords: []
  m_InvalidKeywords: []
  m_LightmapFlags: 5
  m_EnableInstancingVariants: 0
  m_DoubleSidedGI: 0
  m_CustomRenderQueue: -1
  stringTagMap: {}
  disabledShaderPasses: []
  m_LockedProperties: 
  m_SavedProperties:
    serializedVersion: 3
    m_TexEnvs: []
    m_Ints: []
    m_Floats: []
    m_Colors: []
  m_BuildTextureStacks: []
