%YAML 1.1
%TAG !u! tag:unity3d.com,2011:
--- !u!114 &11400000
MonoBehaviour:
  m_ObjectHideFlags: 0
  m_CorrespondingSourceObject: {fileID: 0}
  m_PrefabInstance: {fileID: 0}
  m_PrefabAsset: {fileID: 0}
  m_GameObject: {fileID: 0}
  m_Enabled: 1
  m_EditorHideFlags: 0
  m_Script: {fileID: 11500000, guid: debb960c3da8f144bb39cc4a9c2cf62a, type: 3}
  m_Name: Day1
  m_EditorClassIdentifier: 
  <DailyProgressionEvents>k__BackingField:
  - EventType: 0
    TextMessage: {fileID: 0}
    TaskData: {fileID: 0}
    EventToTrigger:
      Key: 0
      Value: 0
