%YAML 1.1
%TAG !u! tag:unity3d.com,2011:
--- !u!114 &-2024614952754262021
MonoBehaviour:
  m_ObjectHideFlags: 3
  m_CorrespondingSourceObject: {fileID: 0}
  m_PrefabInstance: {fileID: 0}
  m_PrefabAsset: {fileID: 0}
  m_GameObject: {fileID: 0}
  m_Enabled: 1
  m_EditorHideFlags: 0
  m_Script: {fileID: 11500000, guid: c01700fd266d6914ababb731e09af2eb, type: 3}
  m_Name: DepthOfField
  m_EditorClassIdentifier: 
  active: 1
  mode:
    m_OverrideState: 1
    m_Value: 2
  gaussianStart:
    m_OverrideState: 1
    m_Value: 0
  gaussianEnd:
    m_OverrideState: 1
    m_Value: 51.94
  gaussianMaxRadius:
    m_OverrideState: 1
    m_Value: 0.735
  highQualitySampling:
    m_OverrideState: 0
    m_Value: 0
  focusDistance:
    m_OverrideState: 1
    m_Value: 0.1
  aperture:
    m_OverrideState: 1
    m_Value: 1.5
  focalLength:
    m_OverrideState: 1
    m_Value: 300
  bladeCount:
    m_OverrideState: 1
    m_Value: 7
  bladeCurvature:
    m_OverrideState: 1
    m_Value: 1
  bladeRotation:
    m_OverrideState: 1
    m_Value: 21
--- !u!114 &11400000
MonoBehaviour:
  m_ObjectHideFlags: 0
  m_CorrespondingSourceObject: {fileID: 0}
  m_PrefabInstance: {fileID: 0}
  m_PrefabAsset: {fileID: 0}
  m_GameObject: {fileID: 0}
  m_Enabled: 1
  m_EditorHideFlags: 0
  m_Script: {fileID: 11500000, guid: d7fd9488000d3734a9e00ee676215985, type: 3}
  m_Name: BokehBlur_ALL
  m_EditorClassIdentifier: 
  components:
  - {fileID: -2024614952754262021}
