%YAML 1.1
%TAG !u! tag:unity3d.com,2011:
--- !u!114 &11400000
MonoBehaviour:
  m_ObjectHideFlags: 0
  m_CorrespondingSourceObject: {fileID: 0}
  m_PrefabInstance: {fileID: 0}
  m_PrefabAsset: {fileID: 0}
  m_GameObject: {fileID: 0}
  m_Enabled: 1
  m_EditorHideFlags: 0
  m_Script: {fileID: 11500000, guid: 4a48500539008c641ad366d15739f73f, type: 3}
  m_Name: Latte
  m_EditorClassIdentifier: 
  RecipeName: Latte
  RecipeType: 8
  Icon: {fileID: 7900835468116748658, guid: 2ff629735a2bffe4d822acbdc195bd3f, type: 3}
  NPCWaitTimeMinimum: 60
  IdealTemperature: {x: 50, y: 95}
