%YAML 1.1
%TAG !u! tag:unity3d.com,2011:
--- !u!21 &2100000
Material:
  serializedVersion: 8
  m_ObjectHideFlags: 0
  m_CorrespondingSourceObject: {fileID: 0}
  m_PrefabInstance: {fileID: 0}
  m_PrefabAsset: {fileID: 0}
  m_Name: Skybox_Evening
  m_Shader: {fileID: 4800000, guid: b9946ecd40cf0fb4caa3c70735da3e87, type: 3}
  m_Parent: {fileID: 0}
  m_ModifiedSerializedProperties: 0
  m_ValidKeywords: []
  m_InvalidKeywords:
  - _NORM_NONE
  m_LightmapFlags: 4
  m_EnableInstancingVariants: 0
  m_DoubleSidedGI: 0
  m_CustomRenderQueue: -1
  stringTagMap: {}
  disabledShaderPasses: []
  m_LockedProperties: 
  m_SavedProperties:
    serializedVersion: 3
    m_TexEnvs: []
    m_Ints: []
    m_Floats:
    - _Exp: 0.82
    - _Norm: 0
    m_Colors:
    - _BottomColor: {r: 0.9433962, g: 0.50284797, b: 0.5461461, a: 0}
    - _InnerColor: {r: 0, g: 0.78036356, b: 1, a: 0}
    - _MiddleColor: {r: 1, g: 0.504717, b: 0.5189731, a: 1}
    - _OuterColor: {r: 1, g: 0.7070734, b: 0, a: 0}
    - _TopColor: {r: 0.5058824, g: 0.84752476, b: 1, a: 0}
    - _Up: {r: 0, g: 1, b: 0, a: 0}
  m_BuildTextureStacks: []
  m_AllowLocking: 1
