%YAML 1.1
%TAG !u! tag:unity3d.com,2011:
--- !u!114 &11400000
MonoBehaviour:
  m_ObjectHideFlags: 0
  m_CorrespondingSourceObject: {fileID: 0}
  m_PrefabInstance: {fileID: 0}
  m_PrefabAsset: {fileID: 0}
  m_GameObject: {fileID: 0}
  m_Enabled: 1
  m_EditorHideFlags: 0
  m_Script: {fileID: 11500000, guid: 40e1fa26349dac04c921ef48aa69912f, type: 3}
  m_Name: DefaultKnockingConfig
  m_EditorClassIdentifier: 
  <KnockingMechanicData>k__BackingField:
    NormalKnockNormalizedChargeThreshold: 0.45
    PerfectKnockNormalizedChargeThreshold: 0.65
    BadKnockNormalizedChargeThreshold: 0.75
    ChargingSpeed: 0.8
    DelayBetweenKnock: 0.2
    TimeForInactiveInputBeforeReset: 0.2
    SmoothingInputFactorUp: 20
    SmoothingInputFactorDown: 5
    ThresholdToKnock: 0.8
    ThresholdToCharged: 0.3
    ThresholdToGoingDown: 0.52
    MaxTimeToTriggerKnock: 0.5
    ChargingAnimationCurve:
      serializedVersion: 2
      m_Curve:
      - serializedVersion: 3
        time: 0
        value: 0
        inSlope: 0
        outSlope: 0
        tangentMode: 0
        weightedMode: 0
        inWeight: 0
        outWeight: 0
      - serializedVersion: 3
        time: 1
        value: 1
        inSlope: 2
        outSlope: 2
        tangentMode: 0
        weightedMode: 0
        inWeight: 0
        outWeight: 0
      m_PreInfinity: 2
      m_PostInfinity: 2
      m_RotationOrder: 4
