%YAML 1.1
%TAG !u! tag:unity3d.com,2011:
--- !u!114 &11400000
MonoBehaviour:
  m_ObjectHideFlags: 0
  m_CorrespondingSourceObject: {fileID: 0}
  m_PrefabInstance: {fileID: 0}
  m_PrefabAsset: {fileID: 0}
  m_GameObject: {fileID: 0}
  m_Enabled: 1
  m_EditorHideFlags: 0
  m_Script: {fileID: 11500000, guid: f0d69f22ba4eeed4b905f2779a790a7c, type: 3}
  m_Name: DAY_0_BOSS_HOME_A
  m_EditorClassIdentifier: 
  <MessagesData>k__BackingField:
  - MessageContact: {fileID: 11400000, guid: d865905fee540c3498ba07a76069f880, type: 2}
    Message: Wake up!
    TimeToType: 2
    DelayBetweenMessages: 1
