%YAML 1.1
%TAG !u! tag:unity3d.com,2011:
--- !u!114 &11400000
MonoBehaviour:
  m_ObjectHideFlags: 0
  m_CorrespondingSourceObject: {fileID: 0}
  m_PrefabInstance: {fileID: 0}
  m_PrefabAsset: {fileID: 0}
  m_GameObject: {fileID: 0}
  m_Enabled: 1
  m_EditorHideFlags: 0
  m_Script: {fileID: 11500000, guid: 933c581c4bc49204d991619766deb309, type: 3}
  m_Name: Pants
  m_EditorClassIdentifier: 
  CatalogName: Pants
  Icon: {fileID: 0}
  Customizables:
  - {fileID: 11400000, guid: 307916a7036b79b408fcf53a9d051435, type: 2}
  - {fileID: 11400000, guid: a80f26ecb76290f4ab02d6f861586f3c, type: 2}
  - {fileID: 11400000, guid: 06056eef3ae7d5a448f9f7e2a57e2cb8, type: 2}
  - {fileID: 11400000, guid: 41644838fda09ea4f9918146bdb78a66, type: 2}
  FaceCam: 0
  CanBeSetToNone: 0
