%YAML 1.1
%TAG !u! tag:unity3d.com,2011:
--- !u!1001 &8550551865476287907
PrefabInstance:
  m_ObjectHideFlags: 0
  serializedVersion: 2
  m_Modification:
    serializedVersion: 3
    m_TransformParent: {fileID: 0}
    m_Modifications:
    - target: {fileID: -8679921383154817045, guid: 2a8a542a7425f8349b9196d2dbe2cbc7,
        type: 3}
      propertyPath: m_RootOrder
      value: 0
      objectReference: {fileID: 0}
    - target: {fileID: -8679921383154817045, guid: 2a8a542a7425f8349b9196d2dbe2cbc7,
        type: 3}
      propertyPath: m_LocalPosition.x
      value: 11.451611
      objectReference: {fileID: 0}
    - target: {fileID: -8679921383154817045, guid: 2a8a542a7425f8349b9196d2dbe2cbc7,
        type: 3}
      propertyPath: m_LocalPosition.y
      value: 0.00000023841858
      objectReference: {fileID: 0}
    - target: {fileID: -8679921383154817045, guid: 2a8a542a7425f8349b9196d2dbe2cbc7,
        type: 3}
      propertyPath: m_LocalPosition.z
      value: -5.9845967
      objectReference: {fileID: 0}
    - target: {fileID: -8679921383154817045, guid: 2a8a542a7425f8349b9196d2dbe2cbc7,
        type: 3}
      propertyPath: m_LocalRotation.w
      value: 1
      objectReference: {fileID: 0}
    - target: {fileID: -8679921383154817045, guid: 2a8a542a7425f8349b9196d2dbe2cbc7,
        type: 3}
      propertyPath: m_LocalRotation.x
      value: 0.00000008146034
      objectReference: {fileID: 0}
    - target: {fileID: -8679921383154817045, guid: 2a8a542a7425f8349b9196d2dbe2cbc7,
        type: 3}
      propertyPath: m_LocalRotation.y
      value: 0
      objectReference: {fileID: 0}
    - target: {fileID: -8679921383154817045, guid: 2a8a542a7425f8349b9196d2dbe2cbc7,
        type: 3}
      propertyPath: m_LocalRotation.z
      value: -0
      objectReference: {fileID: 0}
    - target: {fileID: -8679921383154817045, guid: 2a8a542a7425f8349b9196d2dbe2cbc7,
        type: 3}
      propertyPath: m_LocalEulerAnglesHint.x
      value: 0
      objectReference: {fileID: 0}
    - target: {fileID: -8679921383154817045, guid: 2a8a542a7425f8349b9196d2dbe2cbc7,
        type: 3}
      propertyPath: m_LocalEulerAnglesHint.y
      value: 0
      objectReference: {fileID: 0}
    - target: {fileID: -8679921383154817045, guid: 2a8a542a7425f8349b9196d2dbe2cbc7,
        type: 3}
      propertyPath: m_LocalEulerAnglesHint.z
      value: 0
      objectReference: {fileID: 0}
    - target: {fileID: -8095425723348609357, guid: 2a8a542a7425f8349b9196d2dbe2cbc7,
        type: 3}
      propertyPath: 'm_Materials.Array.data[0]'
      value: 
      objectReference: {fileID: 2100000, guid: a5a9e1a85735c874a8f919c3d895dd9b, type: 2}
    - target: {fileID: -7511558181221131132, guid: 2a8a542a7425f8349b9196d2dbe2cbc7,
        type: 3}
      propertyPath: 'm_Materials.Array.data[0]'
      value: 
      objectReference: {fileID: 2100000, guid: 0ef2d27a8c9409648a4ff62996855846, type: 2}
    - target: {fileID: -7511558181221131132, guid: 2a8a542a7425f8349b9196d2dbe2cbc7,
        type: 3}
      propertyPath: 'm_Materials.Array.data[1]'
      value: 
      objectReference: {fileID: 2100000, guid: 89865135a61ed46458c663b24cabb65b, type: 2}
    - target: {fileID: -6706108046565552784, guid: 2a8a542a7425f8349b9196d2dbe2cbc7,
        type: 3}
      propertyPath: 'm_Materials.Array.data[0]'
      value: 
      objectReference: {fileID: 2100000, guid: bf70d0943bab9394db8f8bc5ce89d2a1, type: 2}
    - target: {fileID: -3905882693325190584, guid: 2a8a542a7425f8349b9196d2dbe2cbc7,
        type: 3}
      propertyPath: 'm_Materials.Array.data[0]'
      value: 
      objectReference: {fileID: 2100000, guid: 15bc899202b370f4abccc02f365d0ab0, type: 2}
    - target: {fileID: -3307254441855983314, guid: 2a8a542a7425f8349b9196d2dbe2cbc7,
        type: 3}
      propertyPath: 'm_Materials.Array.data[0]'
      value: 
      objectReference: {fileID: 2100000, guid: 3bdc3372d09bf954c92f9e775a736844, type: 2}
    - target: {fileID: 919132149155446097, guid: 2a8a542a7425f8349b9196d2dbe2cbc7,
        type: 3}
      propertyPath: m_Name
      value: Clothing_Rack Variant
      objectReference: {fileID: 0}
    - target: {fileID: 4479315369846262779, guid: 2a8a542a7425f8349b9196d2dbe2cbc7,
        type: 3}
      propertyPath: 'm_Materials.Array.data[0]'
      value: 
      objectReference: {fileID: 2100000, guid: cceabec3bae5fca43a293411fcbfe445, type: 2}
    - target: {fileID: 6221078683627623077, guid: 2a8a542a7425f8349b9196d2dbe2cbc7,
        type: 3}
      propertyPath: 'm_Materials.Array.data[0]'
      value: 
      objectReference: {fileID: 2100000, guid: dbabbb676453b034a8e998c4f580581d, type: 2}
    - target: {fileID: 6581263477078790137, guid: 2a8a542a7425f8349b9196d2dbe2cbc7,
        type: 3}
      propertyPath: 'm_Materials.Array.data[0]'
      value: 
      objectReference: {fileID: 2100000, guid: ae32a3bc60b0ee946a1cda3ec45d26ce, type: 2}
    m_RemovedComponents: []
    m_RemovedGameObjects: []
    m_AddedGameObjects: []
    m_AddedComponents:
    - targetCorrespondingSourceObject: {fileID: 919132149155446097, guid: 2a8a542a7425f8349b9196d2dbe2cbc7,
        type: 3}
      insertIndex: -1
      addedObject: {fileID: 3965424084789605180}
    - targetCorrespondingSourceObject: {fileID: 919132149155446097, guid: 2a8a542a7425f8349b9196d2dbe2cbc7,
        type: 3}
      insertIndex: -1
      addedObject: {fileID: 523463720789661302}
    - targetCorrespondingSourceObject: {fileID: 919132149155446097, guid: 2a8a542a7425f8349b9196d2dbe2cbc7,
        type: 3}
      insertIndex: -1
      addedObject: {fileID: 6582439397454632596}
  m_SourcePrefab: {fileID: 100100000, guid: 2a8a542a7425f8349b9196d2dbe2cbc7, type: 3}
--- !u!1 &8820511318076928242 stripped
GameObject:
  m_CorrespondingSourceObject: {fileID: 919132149155446097, guid: 2a8a542a7425f8349b9196d2dbe2cbc7,
    type: 3}
  m_PrefabInstance: {fileID: 8550551865476287907}
  m_PrefabAsset: {fileID: 0}
--- !u!65 &3965424084789605180
BoxCollider:
  m_ObjectHideFlags: 0
  m_CorrespondingSourceObject: {fileID: 0}
  m_PrefabInstance: {fileID: 0}
  m_PrefabAsset: {fileID: 0}
  m_GameObject: {fileID: 8820511318076928242}
  m_Material: {fileID: 0}
  m_IncludeLayers:
    serializedVersion: 2
    m_Bits: 0
  m_ExcludeLayers:
    serializedVersion: 2
    m_Bits: 0
  m_LayerOverridePriority: 0
  m_IsTrigger: 0
  m_ProvidesContacts: 0
  m_Enabled: 1
  serializedVersion: 3
  m_Size: {x: 1.6590312, y: 2.1891975, z: 0.8280028}
  m_Center: {x: -0.83595955, y: 1.0937948, z: 0.0027095675}
--- !u!114 &523463720789661302
MonoBehaviour:
  m_ObjectHideFlags: 0
  m_CorrespondingSourceObject: {fileID: 0}
  m_PrefabInstance: {fileID: 0}
  m_PrefabAsset: {fileID: 0}
  m_GameObject: {fileID: 8820511318076928242}
  m_Enabled: 1
  m_EditorHideFlags: 0
  m_Script: {fileID: 11500000, guid: 4178eb26d727b944ba6fc43e965ad2fc, type: 3}
  m_Name: 
  m_EditorClassIdentifier: 
  _isWorldSerializable: 1
  _ignoreFromInteraction: 0
  _objectStateEventController: {fileID: 0}
  _screenWidthPercentageUIOffset: 0
  _screenHeightPercentageUIOffset: 0
  _interactionDirection: 15
  _interactionActions:
  - {fileID: 11400000, guid: 39cc4fda452d3004d9a3a718d27434da, type: 2}
  _interactionsConfig: {fileID: 11400000, guid: bdb6e3a75bd29ca44b3048cbdcd2d1d8,
    type: 2}
  _interactableIcon: {fileID: 0}
  _interactableName: Clothing Rack
  <InteractionSocket>k__BackingField: {fileID: 0}
  _uiController: {fileID: 0}
  _virtualCamera: {fileID: 0}
  _characterPosition: {fileID: 0}
--- !u!114 &6582439397454632596
MonoBehaviour:
  m_ObjectHideFlags: 0
  m_CorrespondingSourceObject: {fileID: 0}
  m_PrefabInstance: {fileID: 0}
  m_PrefabAsset: {fileID: 0}
  m_GameObject: {fileID: 8820511318076928242}
  m_Enabled: 1
  m_EditorHideFlags: 0
  m_Script: {fileID: 11500000, guid: 888380afc233049ce9e618f9f36c8ba8, type: 3}
  m_Name: 
  m_EditorClassIdentifier: 
  profile: {fileID: 11400000, guid: 5e5a19d8f8f88a441a7a30a46b9e32af, type: 2}
  profileSync: 1
  previewInEditor: 1
  camerasLayerMask:
    serializedVersion: 2
    m_Bits: 4294967295
  effectGroup: 0
  effectGroupLayer:
    serializedVersion: 2
    m_Bits: 4294967295
  effectNameFilter: 
  combineMeshes: 0
  alphaCutOff: 0
  cullBackFaces: 1
  ignoreObjectVisibility: 0
  reflectionProbes: 0
  GPUInstancing: 1
  depthClip: 0
  cameraDistanceFade: 0
  cameraDistanceFadeNear: 0
  cameraDistanceFadeFar: 1000
  normalsOption: 0
  ignore: 0
  _highlighted: 0
  fadeInDuration: 0.1
  fadeOutDuration: 0.2
  flipY: 0
  constantWidth: 1
  subMeshMask: -1
  overlay: 0.023
  overlayMode: 0
  overlayColor: {r: 1.4980391, g: 1.4980391, b: 1.4980391, a: 1}
  overlayAnimationSpeed: 0.5
  overlayMinIntensity: 0.832
  overlayBlending: 0
  overlayTexture: {fileID: 0}
  overlayTextureScale: 1
  outline: 1
  outlineColor: {r: 0.9339623, g: 0.9339623, b: 0.9339623, a: 1}
  outlineColorStyle: 0
  outlineGradient:
    serializedVersion: 2
    key0: {r: 1, g: 1, b: 1, a: 1}
    key1: {r: 1, g: 1, b: 1, a: 1}
    key2: {r: 0, g: 0, b: 0, a: 0}
    key3: {r: 0, g: 0, b: 0, a: 0}
    key4: {r: 0, g: 0, b: 0, a: 0}
    key5: {r: 0, g: 0, b: 0, a: 0}
    key6: {r: 0, g: 0, b: 0, a: 0}
    key7: {r: 0, g: 0, b: 0, a: 0}
    ctime0: 0
    ctime1: 65535
    ctime2: 0
    ctime3: 0
    ctime4: 0
    ctime5: 0
    ctime6: 0
    ctime7: 0
    atime0: 0
    atime1: 65535
    atime2: 0
    atime3: 0
    atime4: 0
    atime5: 0
    atime6: 0
    atime7: 0
    m_Mode: 0
    m_ColorSpace: -1
    m_NumColorKeys: 2
    m_NumAlphaKeys: 2
  outlineGradientInLocalSpace: 0
  outlineWidth: 0.45
  outlineQuality: 1
  outlineDownsampling: 2
  outlineVisibility: 0
  glowBlendMode: 0
  outlineBlitDebug: 0
  outlineIndependent: 0
  glow: 0
  glowWidth: 0.14
  glowQuality: 1
  glowDownsampling: 2
  glowHQColor: {r: 0.64, g: 1, b: 0, a: 1}
  glowDithering: 1
  glowMagicNumber1: 1.53
  glowMagicNumber2: 0.67
  glowAnimationSpeed: 1
  glowVisibility: 0
  glowBlitDebug: 0
  glowBlendPasses: 1
  glowPasses:
  - offset: 1
    alpha: 2
    color: {r: 1, g: 0.40117237, b: 0, a: 1}
  glowIgnoreMask: 0
  innerGlow: 0
  innerGlowWidth: 1
  innerGlowColor: {r: 1, g: 1, b: 1, a: 1}
  innerGlowVisibility: 0
  targetFX: 0
  targetFXTexture: {fileID: 2800000, guid: 1de3c566a6c8c405b9f6f453137273ec, type: 3}
  targetFXColor: {r: 1, g: 1, b: 1, a: 1}
  targetFXCenter: {fileID: 0}
  targetFXRotationSpeed: 50
  targetFXInitialScale: 4
  targetFXEndScale: 1.5
  targetFXScaleToRenderBounds: 0
  targetFXAlignToGround: 0
  targetFXFadePower: 32
  targetFXGroundMaxDistance: 15
  targetFXGroundLayerMask:
    serializedVersion: 2
    m_Bits: 4294967295
  targetFXTransitionDuration: 0.5
  targetFXStayDuration: 1.5
  targetFXVisibility: 1
  seeThrough: 2
  seeThroughOccluderMask:
    serializedVersion: 2
    m_Bits: 4294967295
  seeThroughOccluderThreshold: 0.4
  seeThroughOccluderMaskAccurate: 0
  seeThroughOccluderCheckInterval: 1
  seeThroughOccluderCheckIndividualObjects: 0
  seeThroughDepthOffset: 0
  seeThroughMaxDepth: 0
  seeThroughIntensity: 0.8
  seeThroughTintAlpha: 0.5
  seeThroughTintColor: {r: 1, g: 0, b: 0, a: 1}
  seeThroughNoise: 1
  seeThroughBorder: 0
  seeThroughBorderColor: {r: 0, g: 0, b: 0, a: 1}
  seeThroughBorderOnly: 0
  seeThroughBorderWidth: 0.45
  seeThroughOrdered: 0
  rmsCount: 8
  hitFxInitialIntensity: 0
  hitFxMode: 0
  hitFxFadeOutDuration: 0.25
  hitFxColor: {r: 1, g: 1, b: 1, a: 1}
  hitFxRadius: 0.5
